<?xml version="1.0" encoding="utf-8"?>
<!-- Generator: Adobe Illustrator 16.0.0, SVG Export Plug-In . SVG Version: 6.00 Build 0)  -->
<!DOCTYPE svg PUBLIC "-//W3C//DTD SVG 1.1//EN" "http://www.w3.org/Graphics/SVG/1.1/DTD/svg11.dtd">
<svg version="1.1" id="Layer_1" xmlns="http://www.w3.org/2000/svg" xmlns:xlink="http://www.w3.org/1999/xlink" x="0px" y="0px"
	 width="33.102px" height="41.227px" viewBox="0 0 33.102 41.227" enable-background="new 0 0 33.102 41.227" xml:space="preserve">
<path d="M31.111,22.633c-1.154-0.586-2.772-0.641-4.424-0.104c0.436-1.169,0.686-2.429,0.686-3.749v-4.437
	c0.05,0.028,0.099,0.063,0.153,0.083c0.438,0.736,1.267,1.202,2.181,1.121c1.274-0.108,2.223-1.234,2.108-2.51l-0.334-3.851
	c-0.111-1.277-0.866-9.294-2.145-9.186c-1.275,0.114-0.848,8.311-0.736,9.587l-0.002,0.006l-1.638-1.128
	c-2.572-8.294-18.167-8.29-20.737,0L4.586,9.594L4.584,9.588c0.111-1.276,0.539-9.473-0.736-9.587
	C2.569-0.108,1.814,7.909,1.703,9.186l-0.334,3.851c-0.114,1.275,0.834,2.401,2.108,2.51c0.914,0.081,1.743-0.385,2.181-1.121
	c0.055-0.02,0.104-0.055,0.153-0.083v4.437c0,1.32,0.25,2.58,0.686,3.749c-1.651-0.536-3.27-0.481-4.424,0.104
	c-2.856,1.814-2.133,7.098-1.047,10.467c1.642,5.078,4.666,8.648,6.752,7.975c2.056-0.663,2.439-5.185,0.895-10.162
	C8.71,30.9,8.75,30.893,8.787,30.885c2.101,5.008,5.876,6.665,7.805,6.399c1.697,0.234,5.589-1.116,7.805-6.399
	c0.037,0.009,0.077,0.016,0.114,0.027c-1.545,4.978-1.161,9.499,0.895,10.162c2.086,0.674,5.11-2.896,6.752-7.975
	C33.244,29.73,33.967,24.447,31.111,22.633z"/>
<g id="Capa_1">
</g>
</svg>
