<?xml version="1.0" encoding="iso-8859-1"?>
<!-- Generator: Adobe Illustrator 16.0.4, SVG Export Plug-In . SVG Version: 6.00 Build 0)  -->
<!DOCTYPE svg PUBLIC "-//W3C//DTD SVG 1.1//EN" "http://www.w3.org/Graphics/SVG/1.1/DTD/svg11.dtd">
<svg version="1.1" id="Capa_1" xmlns="http://www.w3.org/2000/svg" xmlns:xlink="http://www.w3.org/1999/xlink" x="0px" y="0px"
	 width="59.259px" height="35.143px" viewBox="0 0 59.259 35.143" style="enable-background:new 0 0 59.259 35.143;"
	 xml:space="preserve">
<path d="M52.237,9.772c1.438,0.125,3.062,1.25,5.812-1s0-4.438-0.375-4.625s-0.312-0.938,0.125-1.5s1-1.312-1.062-2.312
	S52.112,1.21,52.112,1.21c-0.75-1.312-2.938-1.938-4.812,0.125s-0.312,5.062,0.5,5.75s-1.875,2.688-2.25,2.938
	s-2.5-0.562-5.688-0.25s-5,1.75-5,1.75c-1.75-1.312-4-2.375-8.125-2.625s-7.5-0.25-12.375,1.562s-8.938,5.312-10,10.625
	s2.812,7.312,3.312,7.812s0,0-1.562-0.125s-3.125-0.188-5-0.188S0.3,31.272,0.3,32.522c0,0,0.375,1.188,0.375,2.125
	s12.938,0.312,21.188,0s29.5-0.625,33.5-0.562s3-3.562,2.938-5.188s-2.125-1.312-3.938-1.188s-4.688-0.125-5.062-0.125
	s-0.5-0.312-0.625-1.812s-1.625-2.625-1.812-2.625s1.375-2,3.375-4.375s-0.125-5.75-0.75-6.062s0-0.625,0.375-1.125
	S50.8,9.647,52.237,9.772z M7.591,17.418c3.417-3.792,7.458-5.292,11.75-6.125c4.292-0.833,9.625-0.25,11.167,0.417
	c1.542,0.666,2.458,0.625,1.5,1.333c-0.958,0.708-4.792,4.708-5.417,6.875s-1.333,5.208-0.417,6.292
	c0.917,1.083,1.625,1.625,0.917,1.833c-0.708,0.208-7.583,0.375-7.583,0.375c-2.125,0.083-8.833,0.25-10.333-0.667
	C7.675,26.835,4.175,21.21,7.591,17.418z M55.758,29.543c1-0.083,0.583,1.5,0.583,2.208c0,0.709-0.833,0.542-2.958,0.5
	c-2.125-0.041-4.958-0.375-6.458,0.125s-4.25,0.417-7.833,0.375c-3.583-0.041-8.25,0.667-10.583,0.959
	c-2.333,0.291-4.833-0.542-6.583-0.667s-4.583-0.125-6.333,0.083c-1.75,0.209-4.333,0.459-6.667,0.25
	c-2.333-0.208-5.708-0.083-6.542-0.041c-0.833,0.041-0.958-1.417-0.875-2.459c0.083-1.041,0.75-0.875,1.792-0.791
	c1.042,0.083,2.589,0.321,4.167,0.458c0.958,0.083,3.125-0.25,4.792-0.292c1.667-0.041,3.458,0.125,5.458,0.125
	s3.833-0.083,7.208-0.416c3.375-0.334,8.083-0.084,10.417-0.084c2.333,0,7-0.416,11.125-0.5
	C50.591,29.293,54.758,29.626,55.758,29.543z M47.175,26.251c0.75,1.459-0.542,1.417-1.458,1.417c-0.917,0-4.167,0.125-4.667,0.208
	c-0.5,0.084,1.792-1.916,2.542-2.458c0,0,0.458-0.125,1.125-0.917C45.383,23.71,46.425,24.793,47.175,26.251z M47.758,19.251
	c-2.125,2.25-6.125,5.584-7.417,6.5c-1.292,0.917-1.875,1.167-2.042,1.625c-0.167,0.459-0.125,0.625-0.792,0.75
	c-0.667,0.125-3.667,0.125-4.75,0.125c-1.083,0-1.625,0.542-1.083,0c0.542-0.541,1.333-1.416,1.125-1.583s-2.792,1.583-3.167,1.417
	c-0.375-0.167-1.375-0.709-0.208-1.667s2.708-1.833,2.542-2.125c-0.167-0.292-3.5,2.25-3.667,1.917c-0.167-0.334-0.5-1,0-1.667
	s3.75-3.542,3.5-3.833c-0.25-0.292-2.042,1.083-2.875,1.958s-1.375,1.75-1.375,1s0.208-1.5,0.917-2.292
	c0.708-0.791,1.583-1.583,1.417-1.791c-0.167-0.209-0.583-0.042-0.583-0.042c-0.333,0.333-0.625,0.875-0.917,0.792
	c-0.292-0.084,0.083-1.167,1.542-3.042s3.792-3.625,6.75-4.708c2.958-1.084,6.667-0.875,8.333-0.875c1.667,0,3.5,2,3.75,3.291
	C49.008,16.293,49.883,17.001,47.758,19.251z M48.008,11.251c-0.316-0.114-0.833-0.458-0.333-0.958s2.792-2.708,2.333-3.292
	c-0.458-0.583-2.125-1.583-1.792-3.125c0.333-1.541,1.167-2.5,1.958-2.125s0.042,1.334,0.5,1.875c0.458,0.542,1,0.417,1.625-0.125
	c0.625-0.541,1.792-1.791,2.833-1.666c1.042,0.125,1.625,1.041,0.542,1.625c-1.083,0.583-1.708,1.791-0.75,1.875
	c0.958,0.083,1.542-0.042,2.167,0.458s0.875,1.75-0.625,2.208c-1.5,0.459-3.417-0.25-4.208,0.042
	c-0.792,0.292-1.875,1.292-2.375,1.917S48.466,11.418,48.008,11.251z M35.591,17.96c0.833-0.084,1.208-1.375,0.042-1.709
	c-0.721-0.206-1.458,0.459-1.417,1.167C34.258,18.126,34.758,18.043,35.591,17.96z M41.55,17.918c-0.583-0.045-0.875,0-1.333,0.833
	c-0.458,0.834,0.5,0.917,1.042,1.042c0.542,0.125,1-0.542,1-0.875S42.091,17.96,41.55,17.918z M36.216,19.418
	c-0.342-0.098-1.125,0.125-0.792,0.875s0.708,1,1.167,0.667C37.05,20.626,36.8,19.585,36.216,19.418z M39.633,22.21
	c-0.585,0.159-0.917,1.083-0.292,1.5c0.625,0.416,1.333,0.458,1.583-0.334C41.175,22.585,40.55,21.96,39.633,22.21z M34.633,23.001
	c-0.708,0.048-1.75,1.209-1.167,1.667c0.583,0.458,1.083,0.083,1.5-0.333C35.383,23.918,35.258,22.96,34.633,23.001z M26.008,14.668
	c0.333-0.208,0.375-1.333-0.417-1.458c-0.578-0.092-1.875,0.541-1.333,1.333C24.8,15.335,25.675,14.876,26.008,14.668z
	 M19.341,16.001c0.792-0.583,0.75-1.583-0.25-1.625c-0.335-0.014-1.583,0.792-1.25,1.375C18.175,16.335,18.55,16.585,19.341,16.001z
	 M14.841,16.835c0.458-0.375,0.458-1.5-0.75-1.875c-0.772-0.24-2,0.708-1.25,1.708S14.383,17.21,14.841,16.835z M22.591,18.793
	c0.5-0.25,0.917-1.208-0.292-1.417c-0.54-0.093-1.5,0.5-1.167,1.209C21.466,19.293,22.091,19.043,22.591,18.793z M15.091,20.793
	c0.417,0.917,0.917,1.083,1.542,0.5s0.667-1.25,0.042-1.75C16.121,19.1,14.675,19.876,15.091,20.793z M10.383,21.835
	c0.917,0.625,1.167,0.25,1.458-0.5c0.292-0.75,0.333-0.959-0.333-1.209C10.995,19.934,9.466,21.21,10.383,21.835z M14.05,25.751
	c0.333-0.291,0.125-1.25-0.792-1.291c-0.543-0.024-1.042,0.833-0.542,1.291C13.216,26.21,13.716,26.043,14.05,25.751z M19.133,26.46
	c0.875,0.291,1.583,0.041,1.667-0.417s-0.208-1.167-0.958-1.167C19.215,24.876,18.258,26.168,19.133,26.46z M22.591,23.46
	c0.333-0.375-0.333-0.834-0.583-0.959c-0.82-0.409-1.333,0.584-0.625,1.167C22.091,24.251,22.258,23.835,22.591,23.46z"/>
<g>
</g>
<g>
</g>
<g>
</g>
<g>
</g>
<g>
</g>
<g>
</g>
<g>
</g>
<g>
</g>
<g>
</g>
<g>
</g>
<g>
</g>
<g>
</g>
<g>
</g>
<g>
</g>
<g>
</g>
</svg>
