<?xml version="1.0" encoding="utf-8"?>
<!-- Generator: Adobe Illustrator 16.0.4, SVG Export Plug-In . SVG Version: 6.00 Build 0)  -->
<!DOCTYPE svg PUBLIC "-//W3C//DTD SVG 1.1//EN" "http://www.w3.org/Graphics/SVG/1.1/DTD/svg11.dtd">
<svg version="1.1" id="Capa_1" xmlns="http://www.w3.org/2000/svg" xmlns:xlink="http://www.w3.org/1999/xlink" x="0px" y="0px"
	 width="64px" height="64px" viewBox="0 0 64 64" enable-background="new 0 0 64 64" xml:space="preserve">
<path d="M60.721,36.58c-0.016-0.032-0.033-0.062-0.053-0.094c-0.031-0.051-3.254-5.111-4.801-8.915
	c-0.826-2.478-0.088-5.07,0.033-5.463c1.426-2.899,1.744-4.964,0.976-6.311c-0.629-1.102-1.709-1.211-1.752-1.211
	c-4.248-0.648-7.901,5.666-10.08,9.442c-0.317,0.551-0.666,1.156-0.897,1.511c-0.082-0.047-0.158-0.107-0.205-0.156
	c-0.03-0.035-0.064-0.067-0.1-0.098c-1.389-1.179-2.755-2.187-4.085-3.056c0.146-2.909,2.271-5.831,4.343-7.19
	c1.51-0.991,2.517-2.339,2.765-3.698c0.142-0.78,0.013-1.494-0.363-2.01c-0.983-1.352-2.425-1.748-4.837-1.324
	c-0.65,0.115-1.23,0.164-1.965,0.227c-1.901,0.161-4.504,0.382-10.941,1.927c-7.66,1.838-9.863,5.946-10.446,7.563
	C6.102,20.611,4.426,31.804,4.247,33.456c-0.304,0.138-0.592,0.327-0.853,0.578c-0.692,0.661-1.177,1.991-0.711,3.153
	c0.231,0.578,0.867,1.502,2.582,1.707c0.062,0.455,0.218,0.973,0.574,1.414c0.317,0.393,0.914,0.871,1.956,0.908
	c0.012,0.001,0.102,0.002,0.114,0.002c0.14,0,0.272-0.029,0.406-0.049c1.441,1.639,3.068,2.943,5.045,4.02
	c-0.559,1.482-1.377,4.222-0.589,5.933c0.318,0.69,0.867,1.169,1.586,1.383c0.333,0.101,0.666,0.149,0.992,0.149
	c1.565,0,2.608-1.106,3.25-2.155c0.854,1.14,2.017,2.253,3.603,3.204c0.094,0.053,0.594,0.316,1.216,0.316
	c0.562,0,1.061-0.209,1.44-0.606c0.576-0.603,0.825-1.578,0.762-2.981c-0.03-0.675-0.069-1.371-0.109-2.063
	c0.035,0.001,0.066,0.005,0.102,0.006c0.022,0,0.067,0.001,0.135,0.001c1.43,0,12.673-0.396,20.374-12.505
	c0.062-0.052,0.175-0.134,0.282-0.173c0.275,0.23,0.805,0.744,1.279,1.205c2.852,2.761,8.149,7.906,12.215,7.275
	c0.121-0.009,1.203-0.117,1.832-1.221C62.505,41.6,62.175,39.514,60.721,36.58z M29.225,12.107c6.291-1.51,8.807-1.724,10.644-1.879
	c0.754-0.064,1.404-0.119,2.145-0.251c2.205-0.387,2.605,0.166,2.868,0.529c0.171,0.28-0.071,1.675-1.88,2.862
	c-2.303,1.511-4.579,4.488-5.141,7.703c-7.947-4.534-14.124-4.042-14.398-4.015c-0.958,0.031-1.859,0.114-2.725,0.228
	C21.684,15.745,23.941,13.375,29.225,12.107z M8.76,38.736c-0.317,0.434-0.637,0.484-0.851,0.484v1l-0.041-1
	c-0.348-0.014-0.44-0.128-0.471-0.164c-0.173-0.211-0.191-0.695-0.15-0.949c0.054-0.299-0.031-0.605-0.231-0.834
	c-0.189-0.219-0.465-0.342-0.753-0.342c-0.014,0-0.027,0-0.041,0l-0.233,0.006c-0.784,0-1.325-0.185-1.449-0.492
	c-0.124-0.311,0.055-0.791,0.236-0.965c0.523-0.498,1.098-0.271,1.737,0.543c0.854,1.086,1.913,1.48,2.68,1.619
	C9.135,37.993,9,38.408,8.76,38.736z M14.929,50.588c-0.167-0.049-0.263-0.134-0.34-0.302c-0.381-0.827,0.044-2.718,0.584-4.226
	c0.493,0.215,1.006,0.42,1.541,0.614c0.107,0.392,0.244,0.769,0.379,1.103c0.047,0.119,0.099,0.238,0.15,0.359
	c0.05,0.116,0.099,0.225,0.142,0.315C17.085,49.23,16.267,50.995,14.929,50.588z M17.184,42.275
	c-0.192,0.021-0.381,0.078-0.533,0.205c-0.208,0.172-0.338,0.422-0.359,0.69c-0.005,0.065-0.033,0.501,0.016,1.17
	c-0.48-0.2-0.936-0.399-1.191-0.536c-0.046-0.025-0.098-0.027-0.146-0.044c-1.922-0.954-3.484-2.114-4.84-3.575
	c0.082-0.092,0.172-0.17,0.246-0.271c0.733-1.008,1.044-2.521,0.723-3.52c-0.147-0.457-0.688-0.74-1.159-0.686
	c-0.34,0-1.201-0.09-1.855-0.922c-0.631-0.803-1.266-1.213-1.82-1.41c0.178-1.488,1.101-6.602,5.501-10.302
	C20.366,31.869,18.162,39.857,17.184,42.275z M23.436,52.02c-0.021,0.002-0.211-0.039-0.228-0.045
	c-1.948-1.168-3.127-2.627-3.844-4.012c-0.006-0.014-0.006-0.029-0.013-0.043c-0.005-0.008-0.294-0.564-0.533-1.227
	c-0.04-0.115-0.08-0.231-0.114-0.344c-0.004-0.012-0.008-0.022-0.012-0.035c-0.028-0.097-0.053-0.188-0.078-0.281
	c-0.024-0.096-0.048-0.192-0.064-0.285c-0.006-0.034-0.022-0.066-0.031-0.098c-0.12-0.527-0.186-0.998-0.216-1.373
	c1.146-0.07,1.877-0.467,2.325-0.853c0.839,0.261,1.858,0.28,2.652,0.154c0.007,0.879,0.073,2.155,0.185,4.069
	c0.056,0.951,0.113,1.938,0.156,2.873C23.676,51.723,23.429,52.014,23.436,52.02z M60.01,41.936
	c-0.104,0.203-0.255,0.244-0.337,0.258c-3.151,0.479-8.183-4.387-10.598-6.729c-1.443-1.398-1.767-1.697-2.261-1.768
	c-1.231-0.17-2.127,0.768-2.224,0.875c-0.036,0.042-0.069,0.086-0.101,0.133c-7.434,11.777-18.37,11.663-18.814,11.669
	c-0.096-0.004-0.187-0.013-0.281-0.017c-0.088-1.584-0.163-3.252-0.079-3.707c0.158-0.346,0.106-0.758-0.145-1.059
	c-0.285-0.34-0.763-0.447-1.17-0.271c-0.008,0.004-0.791,0.342-1.751,0.342c-0.543,0-1.036-0.107-1.464-0.322
	c-0.243-0.121-0.513-0.164-0.768-0.07c-0.256,0.09-0.452,0.256-0.565,0.502c-0.012,0.021-0.316,0.414-1.22,0.496
	c1.052-3.009,2.711-11.165-5.675-19.812c1.735-1.271,3.942-2.32,6.756-2.907c0.005-0.001,0.009-0.002,0.013-0.003
	c1.29-0.268,2.704-0.44,4.26-0.492c0.091-0.008,9-0.678,18.922,7.726c0.235,0.24,1.067,0.967,2.166,0.816
	c0.681-0.098,0.982-0.62,2.104-2.564c1.668-2.893,5.15-8.927,8.121-8.456c0.002,0,0.144,0.048,0.24,0.218
	c0.146,0.256,0.502,1.337-1.064,4.497c-0.02,0.039-0.035,0.078-0.049,0.118c-0.049,0.14-1.168,3.464-0.035,6.859
	c1.576,3.876,4.607,8.691,4.961,9.25C60.46,40.574,60.145,41.671,60.01,41.936z"/>
</svg>
