<?xml version="1.0" encoding="iso-8859-1"?>
<!-- Generator: Adobe Illustrator 17.0.2, SVG Export Plug-In . SVG Version: 6.00 Build 0)  -->
<!DOCTYPE svg PUBLIC "-//W3C//DTD SVG 1.1//EN" "http://www.w3.org/Graphics/SVG/1.1/DTD/svg11.dtd">
<svg version="1.1" id="Layer_1" xmlns="http://www.w3.org/2000/svg" xmlns:xlink="http://www.w3.org/1999/xlink" x="0px" y="0px"
	 width="64px" height="64px" viewBox="0 0 64 64" style="enable-background:new 0 0 64 64;" xml:space="preserve">
<g>
	<path d="M22.121,24.834c1.042,1.095,2.593,1.661,4.622,1.692l-6.37-6.37C20.482,21.729,20.905,23.56,22.121,24.834z"/>
	<path d="M32,4.438c-12.198,0-22.122,9.924-22.122,22.122c0,1.807,0.24,3.655,0.714,5.498c0.012,0.125,0.039,0.25,0.082,0.372
		c0.14,0.387,1.384,3.826,2.245,5.282c4.402,8.368,10.438,15.531,17.939,21.292c0.137,0.157,0.308,0.289,0.501,0.385
		c0.18,0.089,0.373,0.137,0.569,0.146c0.039,0.003,0.079,0.005,0.118,0.005c0.242,0,0.488-0.059,0.714-0.17
		c0.167-0.082,0.314-0.197,0.437-0.335C49.982,46.18,53.254,32.707,53.375,32.181c0.495-1.888,0.747-3.779,0.747-5.621
		C54.122,14.361,44.198,4.438,32,4.438z M42.414,37.956c0.586,0.586,0.586,1.535,0,2.121c-0.293,0.293-0.677,0.439-1.061,0.439
		s-0.768-0.146-1.061-0.439l-8.167-8.167l-8.166,8.167c-0.293,0.293-0.677,0.439-1.061,0.439s-0.768-0.146-1.061-0.439
		c-0.586-0.586-0.586-1.535,0-2.121l8.166-8.167l-0.472-0.472c-0.05,0.013-0.101,0.022-0.152,0.029
		c-4.165,0.585-7.342-0.24-9.443-2.454c-3.609-3.804-2.419-10.202-2.366-10.473c0.105-0.544,0.503-0.986,1.034-1.148
		c0.528-0.161,1.106-0.019,1.499,0.374l12.022,12.022l2.011-2.011c-0.779-1.001-1.284-2.013-1.489-3.023
		c-0.355-1.747,0.176-3.39,1.537-4.75l4.573-4.573c0.586-0.586,1.535-0.586,2.121,0s0.586,1.535,0,2.121l-4.573,4.573
		c-0.391,0.391-1.455,1.468-0.028,3.511l5.948-5.949c0.586-0.586,1.535-0.586,2.121,0s0.586,1.535,0,2.121L38.4,25.637
		c2.043,1.425,3.12,0.364,3.511-0.027l4.573-4.573c0.586-0.586,1.535-0.586,2.121,0s0.586,1.535,0,2.121l-4.573,4.573
		c-1.1,1.1-2.363,1.645-3.696,1.645c-1.32,0-2.708-0.541-4.074-1.599l-2.013,2.013L42.414,37.956z"/>
</g>
</svg>
