<?xml version="1.0" encoding="utf-8"?>
<!-- Generator: Adobe Illustrator 16.0.4, SVG Export Plug-In . SVG Version: 6.00 Build 0)  -->
<!DOCTYPE svg PUBLIC "-//W3C//DTD SVG 1.1//EN" "http://www.w3.org/Graphics/SVG/1.1/DTD/svg11.dtd">
<svg version="1.1" id="Capa_1" xmlns="http://www.w3.org/2000/svg" xmlns:xlink="http://www.w3.org/1999/xlink" x="0px" y="0px"
	 width="64px" height="64px" viewBox="0 0 64 64" enable-background="new 0 0 64 64" xml:space="preserve">
<g>
	<path d="M40.268,47.042c-2.472,0.978-5.127,1.578-7.914,1.578c-2.786,0-5.441-0.601-7.913-1.578
		c-0.61,0.476-0.961,1.01-0.961,1.578c0,1.933,3.973,3.5,8.874,3.5s8.875-1.567,8.875-3.5
		C41.229,48.051,40.877,47.516,40.268,47.042z"/>
	<path d="M48.295,25.946c-0.015-0.097-0.042-0.192-0.059-0.288c-0.016-0.088-0.037-0.174-0.053-0.261
		c-0.012-0.061-0.025-0.121-0.037-0.181c-0.023-0.116-0.045-0.232-0.071-0.348c-0.045-0.205-0.072-0.414-0.125-0.616
		c-0.08-0.303-0.373-0.48-0.681-0.429c-0.004,0.001-0.006,0-0.01,0c0.124-0.094,0.2-0.228,0.225-0.372
		c0.043-0.069,0.072-0.144,0.082-0.225c0.014-0.093,0.013-0.189-0.021-0.284c-0.202-0.57-0.44-1.137-0.706-1.685
		c-0.133-0.273-0.443-0.388-0.725-0.296h-0.001c-0.019-0.055-0.033-0.11-0.05-0.166v-0.001c0.209-0.187,0.272-0.494,0.125-0.744
		c-0.312-0.525-0.655-1.034-1.02-1.515c-0.146-0.193-0.389-0.271-0.611-0.22c-0.008,0.002-0.015,0.003-0.021,0.005
		c-0.016-0.104-0.055-0.197-0.118-0.276c0.015-0.049,0.03-0.098,0.032-0.149c0-0.007-0.003-0.014-0.003-0.022
		c0.018-0.023,0.041-0.039,0.056-0.065c0.002,0.004,0.004,0.003,0.005,0.001c0.16-0.289,0.056-0.654-0.231-0.814
		c-0.428-0.236-0.842-0.506-1.246-0.786c-0.002-0.002-0.004-0.004-0.006-0.006c-0.004-0.004-0.008-0.008-0.012-0.012
		c-0.029-0.025-0.062-0.036-0.094-0.054c-0.018-0.01-0.033-0.021-0.05-0.029l-0.001-0.001c-0.008-0.005-0.016-0.009-0.021-0.014
		c-0.002-0.001-0.002-0.001-0.002-0.001c-0.003-0.002-0.006-0.002-0.008-0.003c-0.015-0.006-0.029-0.014-0.045-0.019
		c-0.133-0.077-0.284-0.106-0.426-0.074c-0.139,0.031-0.266,0.112-0.355,0.237c-0.029,0.041-0.041,0.088-0.059,0.133
		c-0.002,0.006-0.006,0.011-0.008,0.017c-0.008-0.003-0.016-0.006-0.023-0.009c-0.033-0.01-0.064-0.026-0.097-0.03
		c0.017-0.007,0.034-0.013,0.051-0.022c0.062-0.033,0.117-0.081,0.166-0.137c0.01-0.011,0.024-0.015,0.033-0.027
		c0.024-0.032,0.032-0.069,0.05-0.103c0.122-0.252,0.064-0.56-0.167-0.734c-0.487-0.368-0.998-0.711-1.515-1.019
		c-0.264-0.155-0.592-0.079-0.774,0.157c-0.015,0.019-0.034,0.03-0.047,0.051c-0.017,0.029-0.021,0.06-0.032,0.09v0.001
		c-0.04-0.003-0.08-0.008-0.119-0.012c-0.027-0.002-0.053-0.005-0.078-0.008V14.58c0.041-0.043,0.092-0.075,0.119-0.131
		c0.145-0.297,0.021-0.655-0.277-0.8c-0.271-0.131-0.553-0.232-0.832-0.349c-0.01-0.005-0.021-0.009-0.032-0.014
		c-0.017-0.043-0.028-0.087-0.056-0.126c-0.321-0.459-0.623-0.944-0.894-1.439c-0.085-0.155-0.228-0.258-0.388-0.296
		c-0.139-0.032-0.289-0.016-0.424,0.058c-0.289,0.158-0.396,0.522-0.237,0.812c0.157,0.288,0.344,0.558,0.519,0.837
		c-0.006,0.007-0.009,0.017-0.014,0.024c-0.009,0.012-0.016,0.027-0.023,0.04c-0.018,0.027-0.037,0.051-0.049,0.081
		c-0.047-0.002-0.095-0.008-0.141,0.002c0.001-0.003,0.003-0.005,0.004-0.008c0.018-0.062,0.016-0.124,0.012-0.186
		c-0.015-0.252-0.18-0.478-0.437-0.545c-0.507-0.134-1.03-0.233-1.554-0.318c-0.016-0.002-0.029-0.007-0.043-0.009
		c-0.082-0.071-0.174-0.127-0.277-0.146c-0.141-0.026-0.289-0.002-0.42,0.078c-0.145,0.088-0.237,0.229-0.271,0.383
		c0,0.002,0,0.004,0,0.006c0,0.004,0,0.009,0,0.014c-0.015,0.004-0.029,0.009-0.043,0.014c-0.001-0.007-0.002-0.013-0.003-0.019
		c0-0.003-0.001-0.005-0.001-0.008c-0.009-0.051-0.02-0.099-0.04-0.145c-0.088-0.195-0.272-0.341-0.5-0.355
		c-0.081-0.005-0.161,0.002-0.243-0.002h-0.002c0.014-0.021,0.023-0.043,0.036-0.063c0.095-0.149,0.117-0.324,0.073-0.483
		c-0.038-0.137-0.125-0.261-0.255-0.343c-0.278-0.178-0.648-0.096-0.826,0.182c-0.077,0.121-0.137,0.251-0.211,0.373
		c-0.007,0.011-0.012,0.022-0.019,0.033c-0.009,0-0.016-0.005-0.025-0.004h-0.001c-0.199,0.006-0.396,0.038-0.595,0.051
		c-0.001,0-0.002,0-0.003,0c-0.007-0.008-0.014-0.015-0.021-0.023c-0.007-0.009-0.016-0.016-0.023-0.025
		c-0.111-0.137-0.271-0.214-0.435-0.222c-0.142-0.007-0.287,0.036-0.406,0.133c-0.07,0.056-0.12,0.126-0.157,0.202
		c-0.004,0.008-0.004,0.018-0.008,0.026c-0.032,0.004-0.066,0.004-0.098,0.008c-0.024,0.003-0.049,0.003-0.073,0.006
		c-0.214,0.031-0.376,0.176-0.456,0.361c-0.027,0.004-0.053,0.01-0.079,0.015c-0.193,0.033-0.385,0.068-0.576,0.108
		c-0.165,0.034-0.334,0.054-0.497,0.093c-0.007,0.002-0.015,0.002-0.022,0.004c-0.012,0.003-0.024,0.004-0.036,0.007
		c-0.089-0.033-0.178-0.047-0.27-0.037c-0.005,0-0.009,0-0.014,0c-0.045-0.068-0.099-0.125-0.163-0.168
		c-0.056-0.037-0.113-0.071-0.178-0.088c-0.137-0.036-0.288-0.022-0.425,0.048c-0.239,0.123-0.35,0.385-0.305,0.636
		c-0.022,0.008-0.043,0.019-0.065,0.026c-0.284,0.097-0.555,0.221-0.833,0.334c-0.046,0.019-0.092,0.036-0.138,0.055
		c-0.167-0.006-0.336,0.051-0.459,0.183c0,0,0,0.001-0.001,0.001c-0.016,0.007-0.033,0.012-0.049,0.02
		c-0.045,0.021-0.094,0.035-0.139,0.056c-0.123,0.057-0.208,0.155-0.267,0.267c-0.003,0.006-0.007,0.011-0.01,0.016
		c-0.001,0.002-0.002,0.003-0.003,0.005c-0.121,0.014-0.235,0.055-0.324,0.133c-0.004,0.004-0.011,0.005-0.015,0.009
		c-0.001,0.001-0.001,0.002-0.002,0.003c-0.065,0.03-0.126,0.068-0.178,0.122c-0.005,0.005-0.011,0.008-0.016,0.013
		c-0.002,0-0.004,0-0.006,0c-0.132-0.022-0.271-0.009-0.397,0.063c-0.528,0.304-1.043,0.639-1.53,0.994
		c-0.267,0.195-0.325,0.569-0.131,0.836c0.118,0.161,0.299,0.246,0.484,0.246c0.122,0,0.246-0.038,0.352-0.115
		c0.303-0.222,0.63-0.418,0.952-0.618c0.019-0.012,0.037-0.025,0.056-0.036c0.017,0.037,0.039,0.07,0.064,0.104
		c0.005,0.007,0.012,0.013,0.018,0.02c-0.004,0.006-0.006,0.013-0.01,0.02c-0.193,0.352-0.373,0.71-0.539,1.073
		c-0.005,0.01-0.01,0.02-0.015,0.03c-0.006-0.005-0.015-0.008-0.022-0.013c-0.052-0.042-0.108-0.081-0.175-0.104
		c-0.425-0.148-0.843-0.331-1.257-0.519c-0.001-0.001-0.001-0.002-0.002-0.003c-0.002-0.002-0.002-0.005-0.004-0.007
		c-0.126-0.144-0.305-0.203-0.483-0.194c-0.067,0.004-0.132,0.016-0.196,0.042c-0.037,0.008-0.077,0.007-0.112,0.021
		c-0.131,0.054-0.243,0.156-0.31,0.294c-0.005,0.011-0.004,0.024-0.009,0.035c-0.003,0.003-0.006,0.006-0.009,0.009
		c-0.001,0.001-0.001,0.001-0.002,0.002c-0.05-0.011-0.102-0.014-0.152-0.026c-0.172-0.039-0.345,0-0.479,0.096
		c-0.116,0.082-0.202,0.206-0.236,0.356c-0.023,0.103-0.01,0.203,0.018,0.297c0.007,0.025,0.018,0.049,0.028,0.072
		c-0.042,0.044-0.09,0.083-0.131,0.127c-0.013,0.014-0.028,0.026-0.041,0.04c-0.013,0.014-0.029,0.026-0.042,0.04
		c-0.199,0.215-0.199,0.533-0.029,0.759c0.014,0.019,0.024,0.039,0.041,0.057c-0.022,0.045-0.037,0.091-0.047,0.139
		c-0.005-0.004-0.008-0.011-0.013-0.015c-0.034-0.027-0.074-0.038-0.112-0.056c-0.247-0.119-0.551-0.068-0.727,0.159
		c-0.102,0.13-0.186,0.275-0.285,0.409c-0.01,0.014-0.019,0.028-0.029,0.042c-0.22,0.043-0.409,0.206-0.467,0.438
		c-0.027,0.106-0.037,0.215-0.062,0.322c-0.011,0.017-0.024,0.033-0.035,0.051c-0.02,0.031-0.043,0.059-0.062,0.09
		c-0.026,0.041-0.058,0.079-0.084,0.12c-0.018,0.003-0.037-0.002-0.054,0.002c-0.137,0.035-0.263,0.12-0.348,0.247
		c-0.146,0.219-0.123,0.496,0.03,0.693c-0.016,0.006-0.03,0.017-0.045,0.025c-0.01,0.005-0.019,0.011-0.029,0.016
		c-0.008,0.005-0.017,0.009-0.026,0.014c-0.047-0.048-0.1-0.091-0.164-0.122c-0.296-0.145-0.655-0.022-0.8,0.274
		c-0.268,0.548-0.507,1.113-0.712,1.682c-0.11,0.311,0.051,0.653,0.361,0.766c0.159,0.057,0.325,0.041,0.465-0.028
		c0.017-0.008,0.03-0.024,0.046-0.034c0.028,0.027,0.067,0.043,0.1,0.065c0,0,0,0.001,0.001,0.001
		c0.054,0.061,0.119,0.112,0.197,0.148c0.029,0.013,0.059,0.012,0.089,0.021c0.015,0.004,0.029,0.007,0.044,0.01
		c0.01,0.002,0.019,0.005,0.029,0.007c0.001,0.018,0.005,0.034,0.007,0.052c0,0,0,0,0,0.001c0.025,0.152,0.107,0.286,0.236,0.38
		c0.019,0.014,0.035,0.031,0.056,0.042c0.01,0.016,0.02,0.033,0.03,0.049c0.087,0.139,0.168,0.282,0.259,0.417
		c0.001,0.001,0.001,0.002,0.002,0.002c-0.013-0.005-0.026-0.01-0.039-0.015c-0.116-0.048-0.235-0.085-0.349-0.136
		c-0.009-0.004-0.019-0.007-0.028-0.011c0-0.001,0-0.002,0-0.002c-0.007-0.026-0.006-0.052-0.017-0.077
		c-0.007-0.018-0.022-0.029-0.031-0.046c0.001-0.006,0.001-0.012,0.001-0.018c0.008-0.07,0.006-0.137-0.01-0.204
		c-0.034-0.141-0.114-0.264-0.234-0.348c-0.054-0.038-0.111-0.072-0.178-0.091c-0.047-0.013-0.092-0.008-0.138-0.009
		c-0.042-0.002-0.084-0.006-0.124,0c-0.222,0.038-0.411,0.194-0.475,0.424c-0.014,0.051-0.021,0.104-0.034,0.156
		c-0.003,0.01-0.004,0.021-0.007,0.031c-0.405,0.184-0.811,0.366-1.196,0.58c-0.22,0.123-0.33,0.364-0.3,0.6
		c0.009,0.073,0.03,0.146,0.067,0.214c0.052,0.094,0.13,0.16,0.215,0.212c0.149,0.091,0.328,0.111,0.499,0.052
		c0.033-0.011,0.068-0.014,0.1-0.032c0.008-0.004,0.016-0.007,0.023-0.011v0.001c-0.053,0.112-0.071,0.238-0.046,0.366
		c-0.002,0.001-0.005,0.001-0.007,0.002c-4.119,1.088-6.66,2.573-6.66,4.211c0,2.728,7.033,12.511,16.689,15.992
		c2.155,0.776,4.44,1.243,6.808,1.243c2.368,0,4.652-0.467,6.808-1.243c9.657-3.481,16.688-13.265,16.688-15.992
		C55.85,28.628,52.939,27.05,48.295,25.946z M47.332,30.988c-0.009,0.005-0.02,0.007-0.027,0.012
		c-0.012,0.006-0.025,0.008-0.035,0.015c-0.031,0.02-0.054,0.051-0.08,0.077c-0.037,0.002-0.071-0.005-0.107,0.003
		c-0.561,0.129-1.114,0.293-1.652,0.478h-0.002c0.002-0.009,0.004-0.018,0.004-0.027c0.039-0.422,0.078-0.845,0.152-1.263
		c0.018-0.1,0.004-0.196-0.025-0.286c-0.002-0.009-0.009-0.016-0.012-0.025c0.028-0.007,0.055-0.02,0.082-0.031
		c0.028-0.012,0.059-0.016,0.085-0.032c0.003-0.002,0.007-0.002,0.011-0.004c0.053-0.034,0.11-0.059,0.164-0.092
		c0.028-0.018,0.06-0.033,0.089-0.05c0.001-0.001,0.002-0.002,0.003-0.003c0-0.001,0.002-0.002,0.006-0.002
		c-0.003,0.002-0.006,0.003-0.009,0.005c-0.024,0.021-0.047,0.044-0.066,0.068c-0.114,0.136-0.175,0.314-0.136,0.501
		c0.066,0.324,0.384,0.532,0.707,0.465c0.138-0.029,0.281-0.038,0.42-0.063c0.012-0.002,0.024-0.003,0.037-0.006
		c0,0,0,0.001,0.002,0.001C47.066,30.822,47.203,30.898,47.332,30.988z M47.199,29.077c0.025-0.012,0.041-0.035,0.064-0.05
		c0,0.006-0.002,0.012-0.002,0.018c-0.005,0.136-0.013,0.27-0.021,0.405c-0.002,0.008-0.002,0.016-0.002,0.025
		c-0.008,0.001-0.014,0.002-0.021,0.003c-0.084,0.012-0.167,0.024-0.251,0.037c-0.241,0.039-0.487,0.059-0.726,0.108
		c-0.025,0.005-0.045,0.021-0.068,0.029c-0.001,0-0.001,0.001-0.002,0.001c-0.004,0.001-0.007,0.003-0.011,0.005
		c0.005-0.003,0.01-0.005,0.015-0.008c0.034-0.02,0.068-0.038,0.102-0.057C46.582,29.416,46.882,29.231,47.199,29.077z M45.73,23.26
		c0.145,0.014,0.287-0.025,0.408-0.115c0.012-0.009,0.026-0.015,0.037-0.025c-0.002,0.005-0.004,0.01-0.006,0.015
		c0,0.001,0,0.001-0.001,0.002c-0.007,0.015-0.011,0.03-0.019,0.045c-0.01,0.011-0.022,0.022-0.037,0.032
		c-0.065,0.05-0.129,0.102-0.193,0.153c-0.036,0.029-0.072,0.057-0.109,0.086c-0.006,0.006-0.015,0.011-0.021,0.017
		c-0.001-0.009-0.005-0.018-0.007-0.027c-0.011-0.05-0.015-0.1-0.038-0.148c-0.006-0.011-0.01-0.024-0.016-0.035H45.73z
		 M44.482,24.003c0.004-0.026,0.006-0.052,0.008-0.078c0.058-0.02,0.109-0.054,0.158-0.09c0.006-0.005,0.016-0.008,0.022-0.014
		c0.009,0.017,0.024,0.028,0.034,0.044c0.005,0.009,0.012,0.015,0.018,0.024c0.063,0.09,0.145,0.16,0.24,0.204
		c0.023,0.01,0.044,0.023,0.068,0.03c-0.031,0.048-0.055,0.097-0.07,0.151c-0.003,0.012-0.006,0.023-0.009,0.035
		c-0.001,0.006-0.003,0.012-0.005,0.018c-0.002,0.011-0.006,0.021-0.008,0.031c-0.035,0.014-0.065,0.032-0.1,0.046
		c-0.027,0.012-0.054,0.026-0.082,0.038c-0.003,0.001-0.005,0.002-0.007,0.003c-0.001-0.005-0.001-0.01-0.002-0.015
		c-0.001-0.004,0-0.008-0.001-0.011c-0.01-0.042-0.027-0.081-0.046-0.12c-0.013-0.025-0.022-0.049-0.039-0.073
		c-0.011-0.015-0.015-0.033-0.024-0.047c-0.021-0.025-0.048-0.038-0.07-0.059c-0.01-0.009-0.021-0.018-0.032-0.027
		c-0.021-0.016-0.036-0.035-0.058-0.048C44.482,24.031,44.48,24.017,44.482,24.003z M44.51,26.573
		c0.221-0.096,0.456-0.166,0.684-0.252c0.002,0,0.002,0,0.004,0c0.414,0.068,0.811,0.14,1.199,0.214
		c0.013,0.002,0.025,0.005,0.039,0.007c-0.375,0.195-0.752,0.385-1.105,0.605c-0.28,0.175-0.365,0.544-0.191,0.825
		c0.118,0.19,0.327,0.282,0.536,0.272c0.011,0,0.021,0.002,0.03,0.001c-0.02,0.028-0.04,0.054-0.059,0.082
		c-0.004,0.006-0.008,0.011-0.013,0.017c-0.022,0.033-0.047,0.064-0.069,0.097c-0.016,0.023-0.033,0.046-0.049,0.069
		c0,0.001,0,0.002-0.002,0.002c0-0.002,0-0.004,0-0.005c-0.002-0.009-0.005-0.018-0.007-0.027c-0.001-0.004-0.002-0.008-0.003-0.013
		c-0.005-0.015-0.005-0.031-0.011-0.046c-0.033-0.073-0.079-0.141-0.142-0.199c-0.062-0.055-0.113-0.12-0.174-0.176
		c-0.096-0.09-0.184-0.19-0.277-0.283c-0.06-0.058-0.116-0.118-0.174-0.177c-0.188-0.192-0.386-0.371-0.562-0.572
		c-0.116-0.133-0.278-0.202-0.442-0.204c-0.08-0.001-0.158,0.018-0.232,0.049c-0.002,0-0.002,0.001-0.002,0.001
		c0-0.021-0.002-0.042-0.002-0.064c-0.002-0.18-0.021-0.359-0.018-0.539c0-0.003,0-0.006,0-0.01
		c0.002-0.052-0.017-0.098-0.027-0.147v-0.001c0.008-0.002,0.017-0.003,0.025-0.005c0.026-0.006,0.055-0.01,0.08-0.016
		c0.001,0,0.001,0,0.002,0.001c0.04,0.019,0.08,0.036,0.123,0.046c0.008,0.002,0.016,0.001,0.023,0.002
		c0.007,0.039,0.009,0.079,0.025,0.118c0.002,0.005,0,0.011,0.002,0.016C43.855,26.564,44.207,26.704,44.51,26.573z M44.832,29.557
		c0.001,0.006,0.005,0.012,0.007,0.02c0.003,0.008,0.007,0.016,0.009,0.023c-0.006,0.002-0.011,0.006-0.018,0.008
		c-0.053,0.015-0.102,0.037-0.146,0.065c-0.057-0.045-0.121-0.078-0.192-0.1c-0.001,0-0.003-0.001-0.005-0.001
		c0.009-0.006,0.012-0.015,0.02-0.021c0.01-0.009,0.018-0.021,0.027-0.031c0.06-0.06,0.104-0.128,0.134-0.204
		c0.004-0.011,0.008-0.023,0.013-0.035c0.008-0.026,0.021-0.05,0.025-0.077c0.04,0.018,0.081,0.029,0.123,0.038
		c-0.01,0.037-0.012,0.074-0.014,0.113c-0.002,0.021-0.002,0.042-0.002,0.063C44.812,29.465,44.818,29.511,44.832,29.557z
		 M42.779,30.888c0.005,0.016,0.011,0.031,0.014,0.047c-0.011-0.002-0.02-0.006-0.029-0.007c-0.02-0.002-0.037-0.012-0.059-0.012
		c-0.398,0.002-0.796,0.04-1.193,0.071c-0.002,0-0.002,0-0.003,0c-0.005-0.008-0.01-0.016-0.014-0.024
		c-0.087-0.156-0.188-0.303-0.269-0.462c-0.08-0.157-0.222-0.265-0.379-0.307c-0.023-0.006-0.049-0.002-0.072-0.006
		c-0.008-0.001-0.016-0.001-0.022-0.002c-0.001-0.046,0.003-0.092-0.007-0.135c-0.018-0.074-0.048-0.145-0.092-0.207
		c-0.084-0.115-0.209-0.201-0.358-0.234c-0.044-0.01-0.087-0.002-0.13-0.002c-0.01,0-0.02-0.001-0.029,0
		c0.002-0.008,0.004-0.015,0.006-0.023c0-0.002,0-0.003,0-0.005c0.002-0.008,0.006-0.016,0.008-0.025
		c0.013,0.001,0.024,0.003,0.037,0.004c0.136,0.009,0.271,0.033,0.404,0.038c0.061,0.002,0.117-0.014,0.172-0.028
		c0.012-0.003,0.024-0.002,0.036-0.006c0.005,0.029,0.015,0.054,0.023,0.081c0.005,0.018,0.008,0.036,0.015,0.053
		c0.005,0.013,0.005,0.028,0.012,0.04c0.104,0.214,0.327,0.356,0.58,0.339c0.051-0.004,0.096-0.024,0.144-0.04
		c0.008-0.003,0.017-0.004,0.024-0.007c0.01,0.014,0.016,0.03,0.025,0.045c0.014,0.021,0.023,0.045,0.037,0.067
		c0.176,0.28,0.544,0.364,0.824,0.191c0.035-0.021,0.057-0.053,0.084-0.08c0.061-0.056,0.105-0.12,0.138-0.193
		c0.076-0.175,0.078-0.379-0.03-0.552c-0.049-0.079-0.088-0.166-0.136-0.247c-0.015-0.023-0.024-0.048-0.039-0.071
		c0.001,0,0.001,0,0.002,0.001c0.101,0.029,0.205,0.042,0.312,0.015c0.181-0.046,0.367-0.069,0.549-0.108
		c0.01-0.002,0.019-0.003,0.027-0.005l0.002,0.001c0.086,0.121,0.162,0.253,0.252,0.372c0.027,0.036,0.064,0.058,0.099,0.086
		c0.063,0.053,0.133,0.091,0.21,0.114c-0.046,0.036-0.082,0.082-0.116,0.13c-0.036,0.052-0.06,0.11-0.079,0.172
		c-0.009,0.03-0.025,0.055-0.029,0.087c-0.004,0.019-0.002,0.037-0.004,0.056c-0.008-0.008-0.017-0.013-0.024-0.02
		c-0.038-0.037-0.073-0.077-0.119-0.102c-0.124-0.068-0.274-0.093-0.423-0.059c-0.074,0.017-0.141,0.05-0.199,0.091
		c-0.048,0.032-0.084,0.075-0.12,0.119c-0.114,0.138-0.172,0.32-0.129,0.508C42.729,30.728,42.76,30.806,42.779,30.888z
		 M40.688,32.144c0.016,0.008,0.029,0.017,0.045,0.024c-0.092-0.002-0.185,0.007-0.277,0.007c-0.01,0-0.02,0.001-0.028,0.001
		c0.003-0.008,0.005-0.018,0.007-0.026c0.021-0.05,0.043-0.099,0.049-0.155c0.002-0.005,0.002-0.011,0.004-0.016v0.001
		C40.542,32.05,40.609,32.104,40.688,32.144z M39.914,26.887c-0.005-0.008-0.008-0.017-0.014-0.025
		c-0.014-0.027-0.027-0.055-0.043-0.082c-0.207-0.37-0.414-0.743-0.59-1.13h0.002c0.314,0.023,0.631,0.044,0.938,0.07
		c0.008,0.001,0.017,0.001,0.026,0.002c-0.064,0.204-0.146,0.404-0.201,0.609c-0.085,0.319,0.105,0.646,0.423,0.733
		c0.319,0.085,0.647-0.104,0.733-0.423c0.013-0.047,0.033-0.092,0.045-0.139c0.002-0.008,0.007-0.016,0.009-0.024h0.001
		c0.341,0.18,0.681,0.364,1.029,0.519c0.01,0.004,0.018,0.009,0.025,0.013c0,0.01,0.001,0.019,0.001,0.029
		c0.005,0.147,0.007,0.294,0.015,0.441c0,0.024,0,0.048,0.002,0.072c0.009,0.165,0,0.332,0.015,0.495
		c0,0.004,0.003,0.007,0.003,0.011c0.003,0.025,0.016,0.045,0.021,0.069c-0.015,0.009-0.033,0.012-0.047,0.022
		c-0.103,0.078-0.168,0.191-0.205,0.314c-0.002-0.001-0.002,0-0.002,0.001c-0.039-0.073-0.082-0.142-0.119-0.215
		c-0.006-0.013-0.014-0.025-0.021-0.037c-0.001-0.001-0.001-0.002-0.002-0.003c0-0.001,0-0.003,0-0.004
		c0.001-0.154-0.015-0.308-0.008-0.461c0.007-0.176-0.063-0.339-0.183-0.453c-0.102-0.099-0.24-0.161-0.393-0.167
		c-0.259-0.01-0.48,0.149-0.572,0.377v0.001c-0.025-0.006-0.051-0.016-0.076-0.023c-0.201-0.051-0.398-0.119-0.599-0.179
		c-0.011-0.003-0.022-0.007-0.032-0.01c0-0.001-0.002-0.001-0.002-0.002c-0.014-0.053-0.025-0.106-0.054-0.155v-0.001
		C39.995,27.054,39.96,26.967,39.914,26.887z M39.316,32.111c0,0.001,0.002,0.002,0.002,0.002c0.007,0.023,0.022,0.041,0.033,0.062
		c0.004,0.009,0.008,0.016,0.012,0.025c-0.014,0.001-0.029,0-0.045,0.001c0-0.008,0-0.017,0-0.024
		C39.316,32.155,39.318,32.133,39.316,32.111z M39.311,31.751c0,0.002,0,0.005,0,0.008c-0.002-0.047-0.002-0.093-0.004-0.139
		c0-0.041-0.002-0.081-0.002-0.121c0-0.018-0.002-0.037-0.002-0.055c0.002-0.001,0.002-0.002,0.002-0.003
		c0.016-0.02,0.029-0.042,0.041-0.064c0.01-0.019,0.025-0.033,0.034-0.053c-0.001,0.004-0.002,0.009-0.002,0.013
		C39.359,31.475,39.327,31.613,39.311,31.751z M39.557,24.636c-0.011-0.001-0.021-0.002-0.031-0.003
		c-0.158-0.014-0.315-0.026-0.474-0.038c-0.005,0-0.01-0.001-0.015-0.001c-0.049-0.065-0.105-0.116-0.174-0.155
		c-0.026-0.016-0.055-0.031-0.084-0.043c0.057,0.011,0.113,0.024,0.169,0.034c0.168,0.03,0.335,0.078,0.503,0.102
		c0.029,0.004,0.058-0.005,0.088-0.005c0.009,0,0.018-0.001,0.025-0.001c0,0.018-0.006,0.036-0.006,0.054
		c-0.002,0.01-0.004,0.019-0.004,0.029C39.553,24.618,39.559,24.627,39.557,24.636z M42.521,20.656
		c0.002-0.003,0.004-0.007,0.006-0.01c0.007,0.001,0.013,0.002,0.02,0.003C42.539,20.651,42.531,20.654,42.521,20.656z
		 M43.494,20.768c-0.001,0.003,0,0.006,0,0.009c0.001,0.006,0.001,0.011,0.002,0.017c0.025,0.199,0.138,0.371,0.312,0.46
		c0.008,0.004,0.017,0.004,0.024,0.008c-0.001,0.003-0.002,0.007-0.002,0.01c-0.001,0.006-0.003,0.012-0.004,0.018
		c-0.011,0.042-0.019,0.084-0.029,0.126c-0.014,0.059-0.026,0.118-0.041,0.178c-0.001,0.004-0.002,0.008-0.003,0.012
		c-0.003,0.015-0.007,0.031-0.011,0.046c-0.013,0.054-0.026,0.108-0.037,0.162c-0.008-0.008-0.013-0.019-0.021-0.027
		c-0.004-0.004-0.006-0.01-0.01-0.014c-0.07-0.064-0.158-0.102-0.254-0.126c-0.047-0.012-0.094-0.027-0.145-0.028
		c-0.027,0-0.051,0.012-0.077,0.015c0.004-0.004,0.007-0.009,0.011-0.013c0.042-0.04,0.086-0.08,0.114-0.13
		c0.045-0.081,0.063-0.174,0.067-0.27c0.002-0.041,0.002-0.082-0.004-0.123c-0.002-0.01,0-0.02-0.002-0.03
		c-0.029-0.129-0.104-0.231-0.197-0.312c-0.01-0.009-0.02-0.021-0.03-0.029c0.046,0.005,0.092,0.012,0.138,0.017
		c0.02,0.002,0.039,0.005,0.059,0.007c0.028,0.003,0.058,0.008,0.086,0.011C43.459,20.764,43.477,20.767,43.494,20.768z
		 M42.098,18.155c0.016-0.025,0.028-0.053,0.045-0.078c0.082-0.121,0.102-0.26,0.086-0.394c0-0.001,0-0.001,0-0.002
		c0.068-0.027,0.133-0.059,0.201-0.086c0.071-0.027,0.139-0.063,0.209-0.089c0,0.001,0.002,0.001,0.002,0.002
		c0.237,0.229,0.478,0.453,0.698,0.697c0.019,0.02,0.039,0.037,0.058,0.057c-0.012,0.041-0.029,0.079-0.031,0.123
		c-0.002,0.019,0,0.038-0.001,0.056h-0.001c-0.004,0.081,0.005,0.163,0.003,0.244c-0.009-0.002-0.017,0-0.025-0.002
		c-0.133-0.023-0.272-0.009-0.399,0.064c-0.025,0.015-0.049,0.034-0.074,0.049l-0.001,0.001c-0.007-0.006-0.013-0.011-0.021-0.017
		c-0.212-0.176-0.433-0.34-0.634-0.527c-0.037-0.035-0.083-0.052-0.126-0.075c-0.001,0-0.001-0.001-0.002-0.001
		C42.089,18.17,42.092,18.162,42.098,18.155z M41.271,22.735c-0.002-0.013-0.002-0.026-0.002-0.039l0,0c0-0.001,0-0.001,0-0.002
		c0,0,0,0.001,0,0.002c0.084,0.093,0.156,0.196,0.241,0.286c0.164,0.174,0.408,0.224,0.621,0.154
		c0.011-0.003,0.021-0.005,0.032-0.009c0.003,0.003,0.004,0.008,0.007,0.011c0.005,0.005,0.011,0.009,0.015,0.014
		c0.026,0.026,0.056,0.048,0.082,0.073c0,0.001,0,0.001,0.002,0.002c-0.009,0.004-0.014,0.011-0.021,0.015
		c-0.234,0.118-0.354,0.369-0.314,0.621c0.008,0.048,0.01,0.097,0.03,0.144c0.058,0.132,0.132,0.256,0.192,0.387
		c0.015,0.032,0.031,0.063,0.047,0.095c0.005,0.01,0.01,0.02,0.015,0.03c-0.004,0.01-0.009,0.021-0.013,0.031
		c-0.037,0.103-0.088,0.202-0.123,0.305c-0.003,0.01-0.001,0.02-0.004,0.031c-0.012-0.001-0.023-0.003-0.034-0.004
		c-0.09-0.011-0.181-0.021-0.271-0.031c-0.008-0.001-0.019-0.002-0.028-0.004c0.006-0.107-0.005-0.212-0.052-0.305
		c-0.047-0.092-0.123-0.164-0.213-0.223c-0.035-0.022-0.064-0.049-0.104-0.065c-0.149-0.059-0.308-0.051-0.446,0.007
		c-0.05,0.021-0.093,0.055-0.136,0.089l-0.001,0.001c0.003-0.034,0.01-0.067,0.014-0.101c0.006-0.059,0.016-0.117,0.022-0.176
		c0.004-0.038,0.01-0.075,0.015-0.113c0.002-0.008,0.002-0.016,0.004-0.024c0,0,0,0,0.002,0c0.108-0.029,0.205-0.082,0.279-0.161
		c0.116-0.122,0.186-0.286,0.167-0.467C41.277,23.12,41.283,22.926,41.271,22.735z M40.775,15.968
		c0.011,0.007,0.021,0.014,0.031,0.021c0.021,0.014,0.041,0.026,0.061,0.04c0.001,0.001,0.003,0.002,0.004,0.003
		c-0.001,0.001-0.003,0.002-0.004,0.002c-0.038,0.012-0.073,0.031-0.109,0.051c-0.005,0.003-0.01,0.004-0.014,0.007
		c-0.008-0.01-0.014-0.019-0.02-0.028c0-0.002,0-0.003,0-0.005c-0.012-0.062-0.039-0.117-0.068-0.172
		C40.695,15.914,40.736,15.94,40.775,15.968z M39.204,18.278c0.032-0.033,0.06-0.07,0.085-0.111
		c0.002-0.004,0.004-0.008,0.007-0.012c0.005,0.005,0.013,0.008,0.017,0.012c0.017,0.013,0.033,0.024,0.051,0.036
		c0.078,0.134,0.203,0.232,0.361,0.273c0.029,0.008,0.055,0.024,0.088,0.027c0.018,0.002,0.033-0.005,0.051-0.005
		c0.009,0,0.017-0.002,0.025-0.003c0.004,0.007,0.006,0.015,0.008,0.022c0.029,0.069,0.049,0.144,0.078,0.213
		c0.047,0.108,0.129,0.186,0.219,0.248c0.008,0.005,0.016,0.01,0.022,0.014c-0.044,0.088-0.058,0.18-0.057,0.272
		c0,0.003,0.001,0.006,0.001,0.008c0.001,0.061,0.005,0.121,0.025,0.179c0.039,0.117,0.121,0.216,0.227,0.291
		c0.02,0.015,0.035,0.037,0.061,0.05c0.061,0.031,0.125,0.044,0.188,0.054c-0.004,0.011-0.005,0.022-0.009,0.034
		c0,0.005-0.002,0.01-0.002,0.015c-0.008-0.002-0.014-0.006-0.021-0.008c-0.012-0.003-0.022-0.011-0.034-0.014
		c-0.045-0.009-0.087-0.001-0.13,0c-0.153,0.003-0.292,0.063-0.399,0.167c-0.017,0.017-0.034,0.031-0.049,0.05
		c-0.027-0.046-0.059-0.089-0.097-0.126c-0.046-0.045-0.101-0.079-0.159-0.108c-0.006-0.003-0.012-0.008-0.018-0.011
		c0.037-0.025,0.076-0.043,0.107-0.077c0.015-0.016,0.02-0.035,0.032-0.052c0.05-0.065,0.083-0.135,0.103-0.211
		c0.017-0.068,0.023-0.137,0.017-0.206c-0.015-0.139-0.071-0.274-0.181-0.377c-0.165-0.153-0.312-0.328-0.471-0.49
		c-0.033-0.034-0.066-0.069-0.1-0.103C39.236,18.312,39.221,18.295,39.204,18.278L39.204,18.278z M38.241,15.779
		c0-0.028,0.002-0.055,0.002-0.083c0-0.008,0.001-0.017,0.001-0.025h0.001c0.224,0.034,0.448,0.041,0.674,0.066
		c0.029,0.003,0.058,0.005,0.087,0.008c0.01,0.001,0.018,0.002,0.026,0.003c-0.001,0.001-0.001,0.003-0.003,0.004
		c-0.008,0.007-0.02,0.01-0.028,0.018c-0.003,0.003-0.006,0.005-0.008,0.008c-0.005,0.005-0.009,0.013-0.013,0.018
		c0,0-0.002,0.001-0.002,0.002c-0.026-0.001-0.055,0-0.082-0.002c-0.117-0.006-0.233,0.001-0.351-0.008
		c-0.11-0.009-0.213,0.022-0.306,0.068l-0.002,0.001C38.238,15.831,38.241,15.805,38.241,15.779z M37.816,27.578
		c-0.028-0.01-0.057-0.021-0.086-0.026c-0.002,0-0.004,0-0.006,0c-0.082-0.014-0.164-0.01-0.244,0.01
		c-0.02-0.04-0.043-0.079-0.062-0.12c-0.011-0.023-0.025-0.045-0.036-0.068c-0.039-0.082-0.089-0.159-0.127-0.242
		c-0.073-0.161-0.209-0.274-0.366-0.323c-0.107-0.034-0.225-0.027-0.339,0.005c-0.007,0.002-0.013,0.003-0.021,0.005
		c-0.016,0.005-0.031,0.005-0.047,0.012c0.011-0.009,0.023-0.014,0.033-0.023c0.004-0.004,0.004-0.01,0.008-0.015
		c0.049-0.053,0.09-0.113,0.117-0.184c0.022-0.058,0.055-0.113,0.076-0.171c0.004-0.01,0.01-0.02,0.014-0.03
		c0.002-0.008,0.006-0.016,0.011-0.024h0.001c0.003,0.001,0.007,0.001,0.01,0.002c0.029,0.019,0.061,0.027,0.094,0.04l0.282,0.046
		c0.033-0.003,0.063-0.002,0.097-0.01c0.016,0.003,0.031,0.005,0.047,0.008c0.082,0.014,0.164,0.027,0.246,0.04
		c0.017,0.003,0.032,0.005,0.049,0.008c0.014,0.011,0.027,0.021,0.039,0.032c0.156,0.138,0.324,0.258,0.484,0.39
		c0.002,0.001,0.004,0.003,0.006,0.004c-0.009,0.004-0.014,0.011-0.021,0.016c-0.199,0.128-0.3,0.352-0.269,0.579
		C37.809,27.552,37.814,27.565,37.816,27.578z M38.027,24.323c-0.094-0.032-0.185-0.078-0.278-0.112
		c-0.176-0.063-0.347-0.139-0.521-0.209c-0.002,0-0.002,0-0.002-0.001V24c0.002-0.002,0.004-0.002,0.006-0.004
		c0.004-0.005,0.009-0.01,0.014-0.016c0.02-0.026,0.044-0.048,0.064-0.074c0,0,0,0,0,0.001c0.02,0.03,0.047,0.054,0.071,0.08
		c0.075,0.082,0.165,0.15,0.28,0.18c0.242,0.063,0.49,0.097,0.734,0.149c0.069,0.015,0.139,0.028,0.207,0.042
		c-0.045-0.001-0.086-0.005-0.129,0.001c-0.067,0.01-0.136,0.028-0.199,0.063c-0.014,0.007-0.026,0.017-0.039,0.025
		c-0.008-0.006-0.016-0.01-0.022-0.016C38.159,24.386,38.1,24.347,38.027,24.323z M38.45,29.906
		c0.062,0.042,0.126,0.073,0.196,0.089c0.004,0.001,0.011,0.001,0.016,0.002c0.003,0.001,0.007,0.001,0.01,0.001
		c-0.02,0.043-0.039,0.085-0.059,0.128c-0.002,0.006-0.004,0.011-0.008,0.017c-0.014,0.032-0.029,0.064-0.043,0.097
		c0,0.001-0.002,0.001-0.002,0.002c-0.004-0.012-0.008-0.023-0.012-0.035c-0.003-0.01-0.007-0.021-0.01-0.031
		c-0.007-0.02-0.014-0.041-0.021-0.061c-0.013-0.041-0.027-0.081-0.041-0.122c-0.008-0.03-0.019-0.058-0.028-0.088
		C38.449,29.905,38.45,29.906,38.45,29.906z M38.668,21.165c-0.053,0.005-0.104,0.016-0.152,0.034
		c-0.004-0.01-0.013-0.018-0.018-0.028c-0.014-0.023-0.027-0.045-0.044-0.066l-0.001-0.001c0.042-0.005,0.083-0.009,0.125-0.014
		c0.009-0.001,0.018-0.002,0.025-0.003c0.01-0.001,0.021-0.002,0.03-0.003l0.001,0.001c0.016,0.017,0.029,0.036,0.045,0.053
		c0.004,0.006,0.01,0.012,0.014,0.018c0.002,0.001,0.002,0.002,0.002,0.002C38.686,21.159,38.677,21.164,38.668,21.165z
		 M36.318,18.512c0.123-0.041,0.226-0.117,0.301-0.22c0.029-0.039,0.059-0.076,0.078-0.122c0.011,0.002,0.021,0.005,0.033,0.007
		c0.101,0.012,0.203,0.008,0.302-0.034c0.126-0.054,0.262-0.09,0.39-0.141c0.068-0.027,0.139-0.049,0.208-0.075
		c0,0.001,0,0.001,0,0.002c-0.053,0.187-0.024,0.393,0.111,0.552c0.086,0.101,0.186,0.188,0.274,0.287
		c0.037,0.041,0.077,0.079,0.115,0.12c-0.011-0.001-0.021,0.003-0.031,0.003c-0.127-0.002-0.254,0.029-0.363,0.109
		c-0.094,0.068-0.151,0.162-0.191,0.262v0.001c-0.035-0.007-0.068-0.015-0.104-0.022c-0.198-0.039-0.396-0.075-0.592-0.122
		c-0.012-0.003-0.023-0.004-0.035-0.007c0-0.001,0-0.001,0-0.002c0-0.218-0.115-0.412-0.306-0.517
		c-0.046-0.025-0.09-0.054-0.144-0.067c-0.016-0.004-0.032-0.01-0.049-0.014C36.318,18.512,36.318,18.512,36.318,18.512z
		 M36.296,21.926c0-0.001,0.001-0.001,0.001-0.002c0.006-0.002,0.012-0.003,0.018-0.005c0.062-0.016,0.123-0.037,0.185-0.052
		c0.011-0.003,0.021-0.006,0.03-0.009c0.002,0,0.002,0.001,0.003,0.001c0.053,0.036,0.104,0.074,0.157,0.109
		c0.011,0.007,0.02,0.014,0.029,0.02c-0.012,0.003-0.023,0.004-0.035,0.006c-0.029,0.009-0.062,0.011-0.094,0.019
		c-0.297,0.071-0.479,0.353-0.447,0.649v0.001c-0.004,0-0.009-0.001-0.012-0.001c-0.035-0.003-0.07-0.008-0.105-0.011h-0.002V22.65
		c0.02-0.072,0.047-0.142,0.066-0.215c0.001-0.005,0.003-0.01,0.006-0.016c0.03-0.112,0.068-0.223,0.103-0.335
		c0.001-0.001,0.001-0.001,0.002-0.002c0.011-0.012,0.026-0.019,0.034-0.032C36.264,22.014,36.277,21.969,36.296,21.926z
		 M35.657,13.641c0.091,0.021,0.185,0.032,0.274,0.055c0.051,0.014,0.103,0.021,0.152,0.021c0.031,0,0.061-0.01,0.091-0.015
		c0.013-0.002,0.026-0.003,0.039-0.006c-0.019,0.065-0.024,0.129-0.021,0.195c0,0.001,0,0.001,0,0.002
		c-0.041-0.01-0.082-0.018-0.121-0.028c-0.104-0.026-0.209-0.044-0.311-0.072c-0.004-0.001-0.008-0.002-0.013-0.003
		c0-0.001-0.001-0.002-0.001-0.002c-0.01-0.015-0.012-0.032-0.023-0.046C35.7,13.71,35.68,13.674,35.657,13.641L35.657,13.641z
		 M35.712,23.907c-0.017,0.025-0.038,0.044-0.051,0.071c-0.024,0.052-0.031,0.108-0.039,0.162c0,0.001,0,0.001,0,0.002
		c-0.009-0.001-0.017-0.001-0.026-0.003c-0.055-0.008-0.111-0.009-0.166-0.018c-0.175-0.029-0.345,0.021-0.473,0.124
		c-0.036,0.029-0.061,0.067-0.09,0.103l-0.001,0.001c-0.007-0.097-0.001-0.195-0.007-0.292c-0.002-0.059,0-0.118-0.004-0.177
		c-0.002-0.043-0.002-0.087-0.002-0.131c0-0.008,0-0.017-0.002-0.025h0.002c0.289,0.047,0.58,0.064,0.871,0.095
		c0.016,0.002,0.031,0.004,0.047,0.005c-0.006,0.007-0.01,0.016-0.017,0.023C35.738,23.866,35.725,23.887,35.712,23.907z
		 M35.714,28.609c-0.007,0.006-0.014,0.013-0.021,0.02c-0.094,0.081-0.182,0.169-0.273,0.253c-0.018,0.016-0.035,0.032-0.052,0.048
		c-0.005-0.007-0.009-0.015-0.013-0.022c-0.014-0.017-0.024-0.033-0.039-0.048c-0.006-0.006-0.015-0.01-0.021-0.015
		c0.004-0.009,0.006-0.018,0.011-0.026c0.014-0.039,0.035-0.073,0.041-0.116c0.028-0.184,0.082-0.366,0.116-0.55
		c0.017-0.091,0.038-0.182,0.058-0.273c0.004-0.02,0.008-0.039,0.012-0.059c0,0.001,0.001,0.002,0.001,0.004
		c0.021,0.098,0.045,0.193,0.067,0.29c0.035,0.156,0.067,0.312,0.106,0.466C35.71,28.59,35.712,28.6,35.714,28.609z M34.828,22.468
		c-0.003,0.011-0.008,0.022-0.01,0.033c-0.002,0.005,0,0.01-0.002,0.015c-0.002,0.01,0,0.019,0,0.029
		c-0.01,0.001-0.02,0-0.028,0.001c-0.002-0.004-0.005-0.007-0.007-0.011c-0.004-0.01-0.014-0.016-0.018-0.026
		c-0.018-0.034-0.041-0.064-0.064-0.094c-0.001-0.001-0.002-0.002-0.002-0.004c0.005-0.006,0.012-0.008,0.017-0.014
		c0.011-0.014,0.024-0.026,0.037-0.04c0.022-0.028,0.051-0.054,0.074-0.082c0.005-0.006,0.01-0.011,0.015-0.016
		c0.001,0.002,0.001,0.002,0.001,0.002c0.009,0.002,0.015,0.005,0.022,0.006c0.009,0.001,0.017,0.006,0.025,0.007
		c-0.006,0.017-0.012,0.034-0.017,0.051C34.859,22.373,34.84,22.42,34.828,22.468z M35.771,25.532
		c0.008-0.005,0.015-0.009,0.021-0.014c0.014-0.009,0.025-0.017,0.039-0.026c0,0.001-0.001,0.002-0.001,0.002
		c-0.011,0.022-0.021,0.044-0.029,0.066c-0.007,0.017-0.015,0.034-0.022,0.051c-0.004-0.009-0.012-0.016-0.016-0.025
		c-0.007-0.011-0.016-0.021-0.021-0.032c0,0,0-0.001-0.001-0.001C35.751,25.546,35.762,25.539,35.771,25.532z M33.048,17.03
		c0.013-0.017,0.029-0.032,0.042-0.049h0.001c0.246,0.092,0.531,0.024,0.694-0.199c0.076-0.105,0.102-0.226,0.102-0.347
		c0-0.072-0.012-0.141-0.037-0.208c-0.007-0.019-0.012-0.039-0.021-0.057c0.017,0.015,0.034,0.029,0.054,0.042
		c0.039,0.026,0.077,0.049,0.121,0.066c0.028,0.011,0.057,0.017,0.085,0.024c0.03,0.007,0.058,0.019,0.089,0.021
		c0.027,0.002,0.055-0.008,0.082-0.01c0.006,0,0.012-0.002,0.018-0.002c0.002,0.006,0.002,0.012,0.005,0.019
		c0.008,0.031,0.007,0.063,0.021,0.094c0.135,0.302,0.488,0.438,0.79,0.305c0.056-0.025,0.116-0.041,0.173-0.065
		c0.043-0.019,0.09-0.033,0.135-0.051c0.008-0.003,0.017-0.006,0.024-0.009v0.001c0.001,0.049,0,0.098,0.001,0.147
		c0.006,0.185-0.007,0.372,0.006,0.556v0.001c-0.009,0-0.018-0.001-0.025-0.001c-0.318-0.016-0.637-0.018-0.953-0.053
		c-0.171-0.019-0.333,0.038-0.455,0.142c-0.062-0.001-0.123,0.001-0.186,0c-0.037,0-0.072,0-0.109,0c-0.053,0-0.107,0-0.16,0
		c-0.139-0.066-0.3-0.078-0.455-0.023c-0.004,0.002-0.009,0.001-0.013,0.002c-0.017,0.006-0.031,0.015-0.048,0.021
		c-0.02,0.001-0.041-0.001-0.062,0c-0.004,0-0.008,0-0.011,0c-0.01,0-0.021,0-0.032,0c-0.017-0.049-0.045-0.09-0.073-0.132
		c-0.006-0.009-0.011-0.018-0.017-0.027c0.043-0.029,0.081-0.064,0.116-0.102c0.012-0.013,0.027-0.02,0.039-0.035
		C33.007,17.076,33.029,17.055,33.048,17.03z M33.104,18.974C33.102,18.982,33.1,18.991,33.098,19
		c-0.014,0.038-0.021,0.077-0.033,0.116c-0.006,0.018-0.01,0.036-0.017,0.055c-0.013,0.014-0.024,0.028-0.038,0.042
		c-0.014,0.015-0.027,0.031-0.042,0.047c-0.009,0.008-0.018,0.018-0.026,0.028c-0.014,0.002-0.026,0.004-0.039,0.006
		c-0.045,0.007-0.088,0.012-0.133,0.02h-0.002c0.01-0.01,0.02-0.02,0.029-0.03c0.092-0.096,0.182-0.191,0.273-0.285
		c0.004-0.004,0.008-0.007,0.011-0.011c0.006-0.006,0.012-0.012,0.019-0.018v0.001C33.102,18.972,33.104,18.973,33.104,18.974z
		 M33.176,27.078c0.002-0.004,0.001-0.009,0.004-0.013c0.004-0.011,0.004-0.023,0.008-0.034c0.002,0.003,0.004,0.007,0.006,0.01
		c0.012,0.017,0.021,0.035,0.031,0.052c0.043,0.064,0.076,0.135,0.119,0.199c0.055,0.08,0.129,0.137,0.207,0.18
		c0.03,0.044,0.059,0.089,0.102,0.125c0.012,0.01,0.025,0.012,0.037,0.02c0.018,0.012,0.037,0.019,0.055,0.029
		c-0.008,0.006-0.012,0.015-0.018,0.021c-0.033,0.032-0.062,0.067-0.086,0.106c-0.018,0.026-0.031,0.052-0.043,0.08
		c-0.002,0.005-0.004,0.01-0.006,0.015c-0.07-0.032-0.142-0.052-0.216-0.055c-0.063-0.003-0.126-0.005-0.187,0.012
		c-0.138,0.038-0.262,0.125-0.344,0.255c-0.082,0.129-0.103,0.276-0.08,0.416v0.001c-0.049-0.006-0.096-0.016-0.144-0.023
		c-0.017-0.002-0.033-0.006-0.05-0.008c-0.001,0-0.002,0.001-0.002,0.001s0.002,0,0-0.001c0,0,0.001,0,0.002,0l0,0
		C32.752,27.997,32.949,27.529,33.176,27.078z M33.639,24.07c0.008-0.003,0.018-0.007,0.025-0.01c0,0.001,0,0.001,0,0.002
		c0.004,0.098,0,0.196,0.006,0.293c-0.008,0-0.018,0-0.025,0c-0.043-0.001-0.086-0.001-0.129-0.002c-0.018,0-0.035,0-0.054,0
		c-0.041-0.033-0.078-0.067-0.127-0.088c-0.026-0.011-0.051-0.026-0.077-0.038l-0.001-0.001h0.001
		C33.383,24.17,33.512,24.123,33.639,24.07z M33.448,21.198c0.001,0,0.002,0,0.002,0.001c0.036,0.009,0.073,0.016,0.11,0.025
		c0.045,0.01,0.09,0.02,0.137,0.031c0.012,0.003,0.023,0.005,0.035,0.008c0.102,0.022,0.203,0.048,0.304,0.068
		c0.009,0.002,0.019,0.004,0.028,0.006c-0.006,0.007-0.014,0.014-0.02,0.021c-0.084,0.099-0.18,0.189-0.261,0.289v0.001
		c-0.005-0.007-0.011-0.014-0.017-0.021c-0.076-0.095-0.145-0.198-0.22-0.295c-0.026-0.034-0.051-0.068-0.077-0.103
		C33.463,21.219,33.456,21.208,33.448,21.198z M33.083,29.757c0.291,0.023,0.542-0.169,0.616-0.443
		c0.002-0.008,0.006-0.016,0.008-0.024c0.003,0.002,0.006,0.004,0.01,0.005c0.008,0.004,0.016,0.008,0.021,0.013
		c0.011,0.006,0.021,0.011,0.031,0.017c0.002,0.011,0.006,0.022,0.008,0.033c0.012,0.063,0.031,0.123,0.045,0.186
		c0.002,0.008,0.004,0.017,0.006,0.025c-0.008,0.004-0.016,0.008-0.023,0.011c-0.049,0.024-0.098,0.047-0.146,0.072
		c-0.116,0.058-0.235,0.111-0.351,0.172c-0.017,0.009-0.033,0.016-0.051,0.025c0,0-0.001,0-0.001,0.001
		c-0.009-0.005-0.019-0.01-0.028-0.014c-0.022-0.011-0.045-0.024-0.067-0.035c-0.028-0.016-0.054-0.03-0.081-0.044
		C33.081,29.757,33.082,29.757,33.083,29.757z M33.793,25.72c-0.018-0.032-0.038-0.062-0.057-0.094
		c-0.01-0.019-0.022-0.037-0.033-0.056c-0.002-0.003-0.003-0.005-0.005-0.008c0,0,0.001-0.001,0.002-0.001
		c0.054-0.039,0.098-0.089,0.138-0.146c0.005,0,0.01,0,0.016,0c0.129,0.002,0.26,0.002,0.388,0.004c0.003,0,0.007,0,0.01,0
		c0.008,0,0.017,0,0.022,0c-0.008,0.003-0.017,0.008-0.025,0.011c-0.16,0.054-0.281,0.169-0.348,0.315
		c-0.012,0.029-0.026,0.058-0.035,0.089c0,0.002,0,0.003-0.002,0.004C33.841,25.798,33.816,25.76,33.793,25.72z M32.727,14.837
		c0.016,0.02,0.035,0.038,0.051,0.059c0.011,0.011,0.021,0.021,0.031,0.032c0.002,0.014,0.002,0.029,0.006,0.044
		c0.004,0.027,0.006,0.056,0.011,0.083c0.017,0.089,0.056,0.166,0.106,0.235c0.004,0.007,0.012,0.011,0.018,0.018
		c-0.012,0.013-0.022,0.027-0.034,0.04l-0.001,0.001c-0.006-0.005-0.014-0.01-0.02-0.016c-0.004-0.004-0.01-0.008-0.014-0.012
		c-0.001-0.001-0.001-0.001-0.002-0.002c0-0.001-0.001-0.002-0.001-0.003c-0.024-0.075-0.049-0.149-0.071-0.225
		c-0.012-0.038-0.025-0.075-0.037-0.113c-0.006-0.021-0.014-0.041-0.02-0.061c-0.003-0.009-0.006-0.017-0.008-0.026
		c-0.006-0.019-0.014-0.038-0.018-0.057C32.725,14.835,32.727,14.836,32.727,14.837z M32.378,22.252
		c0.087-0.028,0.166-0.073,0.231-0.137c0.007-0.006,0.015-0.009,0.021-0.016c0.013,0.015,0.022,0.031,0.034,0.046
		c0.1,0.129,0.189,0.267,0.292,0.392c0.006,0.008,0.012,0.017,0.019,0.024c-0.011,0-0.021,0.001-0.031,0.001
		c-0.1,0.003-0.198,0.007-0.299,0.012c-0.002,0-0.004,0-0.008,0c-0.006-0.008-0.008-0.017-0.015-0.025
		c-0.003-0.001-0.004-0.004-0.006-0.007c-0.025-0.027-0.046-0.059-0.071-0.086C32.486,22.391,32.435,22.318,32.378,22.252
		L32.378,22.252z M32.085,26.528c0.009,0.002,0.018,0.004,0.027,0.007c-0.001,0.003-0.004,0.004-0.005,0.007
		c-0.003,0.005-0.004,0.011-0.007,0.016c-0.053,0.106-0.091,0.219-0.143,0.327c0,0,0,0.001-0.001,0.001
		c-0.005-0.009-0.01-0.018-0.016-0.027c-0.085-0.132-0.164-0.268-0.244-0.403c-0.006-0.01-0.012-0.02-0.018-0.03
		c0.001,0,0.001,0,0.002,0.001C31.814,26.466,31.95,26.492,32.085,26.528z M31.634,20.17c-0.002-0.031-0.002-0.063-0.004-0.094
		c-0.001-0.013-0.001-0.025-0.002-0.038l0.001,0.001c0.02,0.01,0.04,0.017,0.062,0.025c0.003,0.001,0.005,0.001,0.008,0.002
		c0.002,0.016-0.003,0.03,0,0.046c0.004,0.02,0.017,0.034,0.023,0.053c0.018,0.056,0.036,0.112,0.068,0.159
		c0,0.001,0,0.001,0.001,0.002c-0.022-0.016-0.044-0.034-0.067-0.05c-0.003-0.002-0.007-0.005-0.01-0.007
		c-0.026-0.017-0.051-0.038-0.077-0.055l-0.001-0.001v-0.001C31.635,20.198,31.635,20.184,31.634,20.17z M31.455,15.662
		c0,0.001,0.001,0.001,0.001,0.002c0.024,0.034,0.042,0.072,0.075,0.102c0.089,0.081,0.189,0.148,0.28,0.227
		c0.012,0.01,0.024,0.019,0.036,0.029c0.005,0.014,0.009,0.029,0.014,0.044c0.006,0.017,0.011,0.035,0.017,0.052
		c0.004,0.012,0.008,0.025,0.012,0.038c-0.001,0.002-0.003,0.003-0.005,0.005c-0.004,0.008-0.008,0.017-0.012,0.025
		c-0.14,0.261-0.251,0.535-0.377,0.803c-0.004,0.008-0.008,0.017-0.012,0.025c-0.009,0-0.019,0-0.028,0.001
		c-0.081,0.002-0.161,0.003-0.241,0.006c-0.004,0-0.008,0-0.013,0c0.006-0.008,0.008-0.017,0.014-0.025
		c0.167-0.247,0.134-0.579-0.093-0.78l-0.001-0.001c0-0.001,0.001-0.001,0.001-0.002c0.101-0.168,0.196-0.338,0.302-0.501
		C31.436,15.696,31.444,15.678,31.455,15.662z M31.265,29.465c0.029,0.006,0.058,0.008,0.086,0.014c0.002,0,0.004,0.001,0.005,0.001
		c-0.003,0.005-0.008,0.008-0.012,0.013c-0.002,0.003-0.002,0.007-0.003,0.01c-0.029,0.051-0.043,0.106-0.056,0.16v0.001
		c-0.007-0.007-0.013-0.014-0.02-0.02c-0.062-0.06-0.119-0.122-0.18-0.183c-0.112-0.113-0.226-0.225-0.336-0.342
		c-0.111-0.118-0.233-0.224-0.34-0.346c-0.06-0.069-0.133-0.119-0.212-0.153c-0.029-0.012-0.06-0.012-0.09-0.02
		c-0.047-0.012-0.093-0.031-0.141-0.031c-0.023,0-0.046,0.009-0.069,0.012c-0.011-0.013-0.018-0.029-0.03-0.041
		c0.028-0.012,0.058-0.021,0.084-0.037c0.04-0.025,0.072-0.059,0.105-0.093c0.08-0.082,0.146-0.18,0.168-0.302
		c0.059-0.325-0.157-0.637-0.482-0.696c-0.172-0.031-0.341-0.086-0.513-0.123c-0.013-0.003-0.026-0.006-0.039-0.009l0.001-0.001
		c0.064-0.084,0.112-0.177,0.124-0.28c0.002-0.014-0.003-0.029-0.003-0.044c0-0.001,0-0.002,0-0.003
		c0.022-0.051,0.047-0.101,0.069-0.152c0.134-0.301,0.257-0.607,0.409-0.898c0.079-0.15,0.084-0.318,0.034-0.467
		c0.062-0.002,0.122-0.004,0.184-0.006c0.233-0.005,0.468-0.008,0.703-0.012c0.116-0.002,0.235-0.002,0.352-0.004
		c0.005,0,0.009,0,0.014,0c0.021,0,0.041,0,0.062-0.001c-0.015,0.019-0.024,0.042-0.038,0.063c-0.019,0.029-0.035,0.06-0.049,0.093
		c-0.004-0.002-0.008-0.004-0.012-0.006c-0.043-0.022-0.083-0.051-0.129-0.062c-0.138-0.034-0.289-0.018-0.424,0.054
		c-0.291,0.155-0.401,0.518-0.246,0.809c0.287,0.538,0.605,1.063,0.947,1.562c0.055,0.08,0.128,0.136,0.208,0.18
		c0.007,0.004,0.016,0.005,0.023,0.009c-0.013,0.034-0.031,0.067-0.044,0.101c-0.007,0.018-0.004,0.036-0.008,0.054v0.001
		c-0.002,0.009-0.002,0.018-0.004,0.027c-0.017,0.001-0.034-0.002-0.05,0c-0.098,0.013-0.191,0.043-0.27,0.099
		c-0.115,0.083-0.201,0.208-0.234,0.357C30.738,29.075,30.943,29.394,31.265,29.465z M31.174,14.482
		c0.021-0.008,0.042-0.016,0.064-0.022c0.008-0.003,0.016-0.006,0.024-0.008c0,0,0,0.001,0.001,0.002
		c0.016,0.036,0.029,0.073,0.045,0.109c0.004,0.008,0.007,0.017,0.011,0.026c-0.011-0.005-0.022-0.01-0.033-0.014
		c-0.089-0.033-0.18-0.048-0.272-0.037c-0.002,0-0.003,0-0.005,0C31.064,14.52,31.119,14.5,31.174,14.482z M30.988,22.484
		c0.004-0.009,0.006-0.018,0.01-0.027c0,0.001,0.001,0.001,0.001,0.002c0.092,0.115,0.185,0.227,0.279,0.339
		c0.034,0.04,0.066,0.082,0.1,0.122c-0.004,0.008-0.009,0.016-0.013,0.024c-0.047,0.096-0.079,0.201-0.068,0.315
		c0,0.001,0.001,0.002,0.001,0.004c0.003,0.032,0.019,0.058,0.027,0.088c0.011,0.04,0.018,0.082,0.036,0.118
		c-0.011,0.003-0.023,0-0.034,0.004c-0.008,0.003-0.014,0.009-0.021,0.012c-0.125,0.048-0.236,0.136-0.307,0.262
		c-0.02,0.035-0.023,0.073-0.036,0.11c-0.056,0.171-0.034,0.35,0.058,0.498c-0.088,0.001-0.174,0.004-0.261,0.005
		c-0.057,0.001-0.113,0.002-0.169,0.003c-0.048,0.001-0.097,0.002-0.145,0.003c-0.057,0.001-0.115,0.002-0.172,0.003
		c-0.004,0-0.008,0-0.012,0c0.006-0.019,0.004-0.04,0.008-0.059c0.013-0.007,0.023-0.018,0.036-0.026
		c0.026-0.015,0.049-0.033,0.072-0.052c0.113-0.092,0.187-0.219,0.211-0.369c0.006-0.036,0.019-0.069,0.018-0.106
		c-0.003-0.094,0.008-0.189,0.007-0.284c0-0.001,0-0.003,0-0.004c0-0.001,0.001-0.002,0.001-0.003
		c0.012-0.035,0.027-0.069,0.04-0.105C30.759,23.066,30.865,22.773,30.988,22.484z M30.632,14.665
		c0.042-0.016,0.084-0.028,0.125-0.043c-0.001,0.001-0.001,0.002-0.002,0.002c-0.064,0.042-0.122,0.096-0.168,0.164
		c-0.042,0.062-0.075,0.13-0.116,0.193l-0.001,0.001c-0.001,0-0.002-0.001-0.004-0.001c-0.008,0-0.016-0.002-0.024-0.002
		c-0.126-0.004-0.252-0.026-0.379-0.033c-0.012-0.001-0.025-0.002-0.037-0.003v-0.001c-0.005-0.023-0.012-0.043-0.02-0.065
		c-0.002-0.007-0.007-0.013-0.01-0.019c0.026-0.004,0.052-0.007,0.077-0.014c0.021-0.006,0.043-0.003,0.064-0.012
		C30.297,14.767,30.468,14.724,30.632,14.665z M29.682,13.394c0.124-0.019,0.244-0.053,0.369-0.069
		c0.053-0.007,0.098-0.03,0.144-0.049c0.012-0.005,0.026-0.007,0.038-0.013c-0.021,0.045-0.044,0.088-0.053,0.139
		c-0.008,0.043,0.001,0.084,0.002,0.127c0,0.009,0,0.018,0,0.026c-0.008,0.003-0.016,0.005-0.024,0.008
		c-0.043,0.016-0.088,0.028-0.13,0.044c-0.032,0.012-0.066,0.021-0.099,0.033c-0.004-0.007-0.007-0.015-0.012-0.022
		c-0.051-0.083-0.118-0.158-0.21-0.208C29.698,13.405,29.69,13.399,29.682,13.394L29.682,13.394z M29.238,14.496
		C29.238,14.494,29.238,14.494,29.238,14.496c0.013,0.003,0.024,0.007,0.036,0.01c-0.013,0.004-0.025,0.013-0.038,0.018
		c0,0-0.001,0-0.001,0.001C29.235,14.515,29.237,14.506,29.238,14.496z M29.011,17.362c0.048,0.023,0.103,0.031,0.157,0.04
		c0.024,0.004,0.045,0.017,0.07,0.018c0.098,0.005,0.188-0.021,0.272-0.059c0.008-0.004,0.014-0.009,0.022-0.013
		c0.016,0.035,0.026,0.073,0.042,0.108c0.006,0.012,0.009,0.026,0.015,0.038c0.082,0.177,0.242,0.286,0.42,0.324
		c0.013,0.003,0.025,0.004,0.038,0.006c0.01,0.028,0.011,0.061,0.025,0.087c0.006,0.011,0.017,0.019,0.023,0.029
		c0.034,0.056,0.073,0.109,0.122,0.151c-0.004,0.05-0.005,0.101,0.004,0.151c0.015,0.085,0.044,0.168,0.098,0.242
		c0.01,0.014,0.022,0.026,0.032,0.04c0.037,0.051,0.08,0.096,0.118,0.147c-0.004,0.008-0.011,0.013-0.015,0.021
		c-0.036,0.076-0.06,0.158-0.062,0.247c-0.001,0.088,0.01,0.175,0.01,0.263c0,0.01,0.001,0.019,0.001,0.029
		c-0.008,0.005-0.016,0.01-0.025,0.015c-0.015,0.009-0.029,0.018-0.044,0.027c-0.011,0.007-0.022,0.014-0.033,0.021
		c-0.009-0.003-0.017-0.011-0.026-0.013c-0.083-0.022-0.169-0.028-0.252-0.015c-0.14,0.023-0.273,0.096-0.369,0.215
		c-0.062,0.077-0.095,0.165-0.113,0.256c-0.002,0.01-0.001,0.021-0.003,0.031c-0.023,0.015-0.048,0.029-0.071,0.044
		c-0.031,0.021-0.064,0.038-0.094,0.059c-0.014,0.009-0.028,0.017-0.042,0.026c-0.001-0.009-0.005-0.017-0.007-0.025
		c-0.012-0.058-0.029-0.114-0.058-0.168c-0.005-0.009-0.013-0.016-0.018-0.024c0.012-0.006,0.022-0.016,0.034-0.022
		c0.046-0.026,0.094-0.048,0.133-0.087c0.235-0.233,0.236-0.612,0.004-0.847c-0.103-0.104-0.193-0.224-0.294-0.332
		c-0.051-0.055-0.099-0.113-0.15-0.169c-0.065-0.072-0.129-0.145-0.193-0.218c-0.016-0.019-0.033-0.037-0.049-0.055
		c0,0,0.001,0,0.002-0.001c0.086-0.049,0.164-0.115,0.216-0.208c0.061-0.109,0.073-0.228,0.063-0.344
		C29.013,17.385,29.013,17.373,29.011,17.362z M28.351,16.689c0.09-0.144,0.165-0.296,0.26-0.436
		c0.042-0.062,0.064-0.132,0.081-0.201c0.002-0.008,0.008-0.016,0.01-0.024c0.007,0.001,0.015,0.001,0.022,0.002
		c0.007,0.001,0.015,0.001,0.022,0.002c0.001,0,0.002,0,0.003,0c-0.001,0.008-0.002,0.017-0.003,0.025
		c-0.023,0.246-0.065,0.492-0.077,0.737c-0.002,0.038,0.012,0.072,0.017,0.109v0.001c-0.017-0.01-0.033-0.022-0.05-0.032
		c-0.097-0.055-0.188-0.123-0.284-0.18c-0.001,0-0.001-0.001-0.002-0.001C28.35,16.69,28.351,16.689,28.351,16.689z M28.817,21.774
		c0.283-0.17,0.375-0.538,0.206-0.821c-0.042-0.07-0.074-0.148-0.115-0.219c0-0.001-0.001-0.001-0.001-0.002
		c0,0,0-0.001,0.001-0.001c0.008-0.009,0.016-0.019,0.024-0.029c0.006-0.007,0.011-0.014,0.017-0.021
		c0,0.001,0.001,0.001,0.001,0.002c0.018,0.053,0.034,0.107,0.067,0.155c0.039,0.056,0.09,0.098,0.143,0.136
		c0.061,0.044,0.128,0.075,0.2,0.093c-0.045,0.044-0.079,0.094-0.109,0.15c-0.015,0.027-0.036,0.051-0.046,0.081
		c-0.026,0.075-0.038,0.156-0.032,0.24c0.001,0.016,0.01,0.028,0.012,0.043c0.025,0.161,0.11,0.295,0.234,0.386
		c0.005,0.004,0.012,0.006,0.018,0.01c0.008,0.005,0.017,0.009,0.025,0.014c-0.001,0.013,0,0.026-0.001,0.039
		c-0.009,0.002-0.017,0.008-0.025,0.011c-0.051,0.015-0.098,0.031-0.141,0.059c-0.006,0.004-0.013,0.004-0.018,0.008
		c-0.128,0.089-0.243,0.195-0.369,0.287c-0.028,0.021-0.055,0.044-0.083,0.065c-0.001,0-0.001,0.001-0.002,0.001
		c-0.012-0.002-0.023-0.003-0.035-0.005c-0.091-0.012-0.182-0.023-0.273-0.037c-0.209-0.031-0.419-0.044-0.625-0.084
		c-0.173-0.033-0.345,0.012-0.475,0.112c-0.113,0.086-0.196,0.213-0.224,0.364c-0.051,0.268,0.091,0.52,0.323,0.637
		c0.017,0.009,0.036,0.015,0.054,0.022c0.033,0.013,0.062,0.033,0.098,0.04c0,0,0.001,0,0.002,0
		c-0.002,0.008-0.004,0.016-0.007,0.024c-0.018,0.07-0.022,0.139-0.015,0.21c0.001,0.01,0.002,0.019,0.004,0.029
		c-0.011,0.007-0.02,0.016-0.031,0.023c-0.012,0.008-0.024,0.018-0.036,0.027c-0.049,0.034-0.094,0.072-0.142,0.106
		c-0.002-0.009-0.005-0.017-0.008-0.026c-0.057-0.18-0.188-0.334-0.382-0.394c-0.008-0.003-0.016-0.007-0.025-0.009
		c-0.145-0.045-0.285-0.11-0.43-0.16c-0.045-0.015-0.088-0.034-0.133-0.049c0,0,0-0.001,0.001-0.001
		c0.076-0.126,0.104-0.273,0.075-0.42c0-0.001,0-0.001-0.001-0.002c0.008-0.004,0.016-0.008,0.025-0.012
		c0.116-0.053,0.226-0.12,0.343-0.17c0.162-0.069,0.279-0.202,0.332-0.358c0.04-0.117,0.035-0.247-0.004-0.372
		c-0.006-0.018-0.005-0.037-0.012-0.055c-0.003-0.008-0.011-0.013-0.015-0.021c0.001-0.001,0.003-0.001,0.005-0.001
		c0.026-0.011,0.048-0.024,0.072-0.038c0.003-0.002,0.005-0.004,0.008-0.006c0.089,0.058,0.187,0.085,0.287,0.091
		c0.177,0.011,0.351-0.052,0.476-0.19c0.013-0.014,0.031-0.022,0.043-0.038c0.002-0.003,0.005-0.006,0.008-0.009
		c0,0,0,0,0.001,0.001C28.297,21.867,28.582,21.913,28.817,21.774z M28.335,30.907c0.003,0.005,0.008,0.008,0.01,0.013
		c0.001,0.001,0.002,0.002,0.003,0.003c0.006,0.009,0.015,0.016,0.021,0.025c-0.007-0.002-0.015-0.002-0.022-0.004
		c-0.052-0.014-0.102-0.031-0.158-0.031c-0.031,0-0.062-0.005-0.093-0.004c-0.088,0-0.177-0.011-0.266-0.013
		c-0.002,0-0.003-0.001-0.005-0.001c-0.015-0.003-0.027-0.011-0.042-0.012c-0.025-0.003-0.047,0.006-0.071,0.007
		c-0.003,0-0.006,0.001-0.009,0.001c-0.191-0.004-0.382-0.015-0.573-0.027c-0.001,0-0.001,0-0.002,0c-0.003,0-0.007,0-0.01,0
		c0-0.001,0-0.001,0.001-0.002c0.139-0.217,0.119-0.487-0.034-0.684c-0.032-0.041-0.062-0.083-0.105-0.116l0.001-0.001
		c0.166-0.113,0.279-0.298,0.27-0.513c-0.006-0.15,0.008-0.302,0.006-0.453c-0.001-0.09,0.003-0.18,0.004-0.27
		c0-0.022,0.001-0.043,0.001-0.065c0.001-0.054,0.001-0.108,0.002-0.163c0.001,0,0.001,0,0.002,0
		c0.162,0.019,0.331-0.023,0.463-0.138c0.085-0.075,0.183-0.138,0.27-0.211c0.008-0.007,0.017-0.013,0.025-0.02h0.001
		c0.126,0.035,0.253,0.059,0.38,0.091c0.01,0.003,0.021,0.005,0.031,0.007c-0.013,0.006-0.027,0.01-0.039,0.016
		c-0.017,0.009-0.035,0.011-0.052,0.021c-0.277,0.18-0.356,0.55-0.176,0.827c0.11,0.17,0.242,0.325,0.358,0.491
		c0.006,0.008,0.012,0.016,0.018,0.025c-0.003,0.01-0.007,0.019-0.01,0.029c-0.081,0.241-0.181,0.476-0.251,0.717
		C28.238,30.611,28.261,30.773,28.335,30.907z M28.179,26.56c-0.007,0.017-0.016,0.033-0.023,0.049
		c-0.015,0.011-0.028,0.023-0.043,0.033c-0.127,0.092-0.245,0.192-0.369,0.288c-0.006,0.005-0.013,0.01-0.019,0.015
		c-0.037,0.028-0.073,0.057-0.11,0.086c0,0-0.001,0-0.001,0.001c-0.006-0.006-0.012-0.012-0.018-0.017
		c-0.009-0.008-0.017-0.017-0.027-0.025c0,0,0.001,0,0.001-0.001c0.045-0.021,0.091-0.038,0.131-0.069
		c0.059-0.046,0.111-0.102,0.15-0.17c0.213-0.37,0.459-0.725,0.705-1.078c0.032-0.046,0.059-0.094,0.091-0.14
		c-0.002,0.004-0.003,0.008-0.005,0.012C28.474,25.877,28.325,26.218,28.179,26.56z M27.468,14.901
		c0.125-0.029,0.249-0.062,0.375-0.088c0.035-0.008,0.071-0.019,0.108-0.026c0.001,0.001,0.002,0.001,0.003,0.001
		c0.01,0.006,0.022,0.008,0.033,0.013c0.017,0.008,0.035,0.015,0.053,0.021c0.014,0.081,0.041,0.153,0.084,0.22
		c0.001,0.002,0.003,0.004,0.004,0.007c0.017,0.026,0.029,0.056,0.05,0.079c-0.019,0.033-0.026,0.072-0.039,0.108
		c-0.003,0.007-0.005,0.014-0.007,0.022v0.001c-0.007-0.003-0.014-0.008-0.021-0.011c-0.052-0.025-0.102-0.057-0.154-0.083
		c-0.03-0.015-0.058-0.032-0.088-0.047C27.733,15.05,27.602,14.974,27.468,14.901c-0.001,0.001-0.001,0-0.002,0
		C27.467,14.901,27.467,14.901,27.468,14.901z M27.007,17.982c0.054,0.02,0.109,0.041,0.164,0.045
		c0.032,0.002,0.062-0.008,0.094-0.01c0.021,0.064,0.049,0.128,0.093,0.184c0.008,0.01,0.018,0.019,0.026,0.03
		c0.022,0.027,0.047,0.051,0.069,0.078c0,0.001,0.001,0.001,0.001,0.002c-0.013-0.002-0.026-0.005-0.039-0.007
		c-0.064-0.01-0.126-0.022-0.19-0.033c-0.031-0.005-0.061-0.01-0.091-0.016c0-0.001,0-0.002,0-0.002
		c-0.018-0.084-0.052-0.164-0.107-0.236c-0.006-0.008-0.008-0.018-0.014-0.025c-0.003-0.003-0.005-0.007-0.008-0.01
		C27.005,17.982,27.006,17.982,27.007,17.982z M25.815,20.32c0.128-0.121,0.192-0.287,0.187-0.451
		c-0.001-0.011-0.006-0.021-0.007-0.031c-0.001-0.009-0.004-0.017-0.005-0.026c0.005,0,0.01,0.001,0.015,0.001
		c0.058,0.002,0.111-0.014,0.165-0.027c0.198-0.05,0.353-0.194,0.417-0.389c0.003-0.008,0.004-0.016,0.006-0.024
		c0.007,0.001,0.014,0.002,0.021,0.004c0.103,0.021,0.205,0.035,0.308,0.053c0.074,0.013,0.147,0.026,0.221,0.038
		c-0.004,0.008-0.011,0.015-0.014,0.023c-0.055,0.144-0.055,0.309,0.015,0.461c0.001,0.003,0.003,0.006,0.005,0.009
		c0.004,0.008,0.009,0.015,0.012,0.023c-0.006,0.006-0.013,0.012-0.019,0.018c-0.145,0.148-0.303,0.285-0.441,0.438
		c-0.076,0.085-0.113,0.187-0.133,0.292v0.001c-0.065,0.002-0.131-0.002-0.197-0.001c-0.114,0.001-0.228-0.001-0.342-0.002
		c-0.07-0.001-0.139,0-0.209-0.001c-0.001-0.001-0.002-0.001-0.003-0.002c-0.081-0.06-0.177-0.096-0.281-0.109
		c-0.001,0-0.002,0-0.002,0c0.007-0.007,0.014-0.015,0.021-0.022C25.645,20.507,25.724,20.407,25.815,20.32z M24.207,32.473
		c-0.017-0.242-0.012-0.487-0.017-0.731c0-0.001,0-0.001,0-0.002c0,0,0.001-0.001,0.002-0.001c0.16-0.104,0.309-0.223,0.472-0.321
		c0.006-0.004,0.009-0.01,0.015-0.014c0.001,0,0.001-0.001,0.002-0.002c0.005-0.001,0.009-0.002,0.014-0.003
		c0.304-0.064,0.608-0.128,0.917-0.173c0.029-0.004,0.057-0.012,0.085-0.016c0.002,0,0.003,0.001,0.005,0.001
		c0.05,0.004,0.099-0.006,0.148-0.015c0.015-0.003,0.03-0.003,0.045-0.007c-0.022,0.052-0.041,0.105-0.048,0.164
		c-0.001,0.004-0.003,0.008-0.003,0.012c-0.023,0.218,0.082,0.414,0.247,0.536c0.007,0.005,0.013,0.012,0.02,0.017
		c-0.037,0.027-0.074,0.053-0.112,0.08c-0.01,0.007-0.019,0.014-0.029,0.021c-0.006-0.006-0.009-0.014-0.015-0.02
		c-0.041-0.037-0.09-0.059-0.139-0.083c-0.03-0.015-0.056-0.038-0.088-0.048c-0.136-0.041-0.287-0.033-0.426,0.033
		c-0.168,0.079-0.274,0.228-0.317,0.396c-0.002,0.009-0.002,0.018-0.004,0.027c-0.058,0.015-0.117,0.024-0.174,0.039
		c-0.092,0.025-0.189,0.037-0.281,0.063c-0.134,0.039-0.236,0.126-0.312,0.23c-0.003,0.005-0.008,0.008-0.011,0.013
		c0.001-0.024,0.011-0.047,0.009-0.071C24.206,32.557,24.21,32.516,24.207,32.473z M22.979,31.093c0,0.01,0.001,0.02,0.001,0.03
		c-0.008,0-0.016,0.005-0.025,0.011c-0.138,0.098-0.286,0.183-0.42,0.285c-0.058,0.045-0.102,0.1-0.139,0.159l-0.001,0.001
		c-0.044,0-0.088-0.006-0.132-0.006c-0.093-0.001-0.186-0.01-0.279-0.013c-0.013,0-0.027-0.001-0.04-0.002
		c0,0-0.001-0.001-0.001-0.002c-0.177-0.154-0.436-0.196-0.659-0.085c-0.03,0.015-0.056,0.034-0.086,0.049
		c-0.001,0.001-0.002,0.001-0.003,0.002c-0.016-0.001-0.031-0.001-0.047-0.002c-0.071-0.006-0.142-0.003-0.213-0.01
		c-0.163-0.017-0.316,0.038-0.435,0.134c-0.009,0.007-0.021,0.01-0.029,0.017c-0.05,0.046-0.091,0.101-0.124,0.162
		c-0.017-0.029-0.033-0.058-0.055-0.084c-0.004-0.005-0.01-0.008-0.014-0.013l-0.001-0.001c0.005-0.004,0.011-0.007,0.017-0.011
		c0.044-0.029,0.089-0.056,0.133-0.085c0.071-0.046,0.141-0.091,0.212-0.136c0.195-0.122,0.38-0.258,0.58-0.37
		c0.154-0.087,0.255-0.232,0.291-0.392c0.02-0.089,0.011-0.181-0.012-0.272c-0.013-0.051-0.024-0.102-0.051-0.15
		c-0.02-0.035-0.05-0.058-0.075-0.087c0.005-0.003,0.011-0.004,0.016-0.007c0.135-0.085,0.237-0.22,0.271-0.388
		c0.063-0.325-0.148-0.639-0.472-0.703c-0.058-0.011-0.114-0.032-0.172-0.044h-0.001l0.001-0.001c0.361-0.302,0.73-0.6,1.119-0.868
		c0.145-0.1,0.233-0.254,0.254-0.417c0.018-0.141-0.015-0.289-0.102-0.415c-0.069-0.1-0.167-0.162-0.272-0.204
		c-0.094-0.038-0.193-0.055-0.294-0.042c-0.018,0.002-0.035-0.001-0.053,0.003c-0.019,0.004-0.035,0.017-0.054,0.023
		c-0.054,0.018-0.109,0.034-0.159,0.068c-0.095,0.065-0.179,0.144-0.272,0.211c-0.059,0.043-0.114,0.09-0.173,0.134
		c-0.002-0.009-0.004-0.018-0.006-0.027c-0.002-0.007-0.003-0.015-0.005-0.022c-0.006-0.018-0.005-0.038-0.013-0.055
		c-0.003-0.007-0.01-0.012-0.014-0.019c0.018-0.052,0.032-0.104,0.036-0.158c0.001-0.009,0.006-0.017,0.006-0.027
		c0.001-0.044-0.013-0.087-0.022-0.13c-0.002-0.008-0.002-0.017-0.004-0.025c0.041,0.001,0.083,0.004,0.124,0.005
		c0.143,0.002,0.286,0.019,0.428,0.017c0.022,0,0.043,0.003,0.065,0.003c0.007,0,0.012-0.004,0.018-0.004
		c0.036-0.002,0.069-0.015,0.103-0.023c0.096-0.023,0.183-0.063,0.255-0.125c0.035-0.03,0.063-0.064,0.09-0.102
		c0.007-0.009,0.012-0.019,0.018-0.028c0.024,0.033,0.058,0.058,0.089,0.086c0.025,0.023,0.043,0.051,0.073,0.07
		c0.271,0.172,0.624,0.095,0.807-0.163c0.006-0.008,0.014-0.012,0.02-0.021c0.026-0.041,0.059-0.079,0.086-0.12c0,0,0,0,0.001,0.001
		c0.066,0.082,0.148,0.146,0.246,0.185c0.003,0.001,0.006,0.004,0.01,0.005c0.005,0.002,0.008,0.005,0.013,0.007
		c-0.001,0.001-0.003,0.003-0.004,0.005c-0.014,0.016-0.026,0.033-0.041,0.049c-0.061,0.067-0.115,0.14-0.175,0.208
		c-0.069,0.078-0.133,0.16-0.201,0.239c-0.228,0.266-0.467,0.525-0.676,0.802c-0.193,0.259-0.143,0.622,0.106,0.824
		c0.005,0.004,0.008,0.01,0.013,0.015c0.002,0.002,0.005,0.002,0.007,0.003c0,0.001-0.001,0.002-0.001,0.003
		c-0.036,0.115-0.087,0.228-0.12,0.343c-0.091,0.318,0.093,0.648,0.409,0.741c0.318,0.091,0.649-0.092,0.741-0.409
		c0.078-0.273,0.188-0.54,0.283-0.811c0.002-0.004,0.003-0.008,0.004-0.013c0.002-0.004,0.003-0.009,0.005-0.013l0.001,0.001
		c0.018,0.017,0.035,0.034,0.053,0.051c0.196,0.188,0.385,0.384,0.589,0.56c0.036,0.031,0.068,0.068,0.104,0.099
		c0.067,0.056,0.142,0.093,0.221,0.116c0.017,0.03,0.038,0.057,0.06,0.084c0.006,0.007,0.01,0.016,0.016,0.023
		c-0.017,0.003-0.034,0.005-0.051,0.008c-0.012,0.002-0.024,0.004-0.036,0.006c-0.27,0.045-0.544,0.072-0.809,0.13
		c-0.186,0.041-0.324,0.169-0.402,0.328c-0.002,0.003-0.003,0.007-0.004,0.011c-0.037,0.003-0.074,0.009-0.109,0.018
		c-0.246,0.068-0.433,0.281-0.442,0.549C22.972,30.946,22.98,31.019,22.979,31.093z M21.841,25.995
		c0.014-0.002,0.028-0.003,0.042-0.005c0.089-0.011,0.175-0.022,0.264-0.033c0.017-0.002,0.033-0.004,0.05-0.006
		c0.012-0.001,0.022-0.003,0.034-0.004c-0.005,0.008-0.012,0.016-0.017,0.024c-0.047,0.07-0.105,0.136-0.15,0.208
		c0,0.001,0,0.001-0.001,0.002c-0.005-0.007-0.01-0.015-0.016-0.022c-0.047-0.058-0.104-0.104-0.169-0.14
		C21.865,26.012,21.854,26.001,21.841,25.995z M23.068,20.233c0.036,0.098,0.086,0.189,0.125,0.287c0,0.001,0.001,0.002,0.002,0.004
		c-0.014-0.013-0.029-0.024-0.043-0.037c-0.093-0.083-0.195-0.157-0.286-0.242l-0.001-0.001c0.001,0,0.001-0.001,0.002-0.001
		c0.044-0.037,0.086-0.075,0.13-0.112c0.017-0.014,0.033-0.029,0.049-0.042c-0.001,0-0.001,0-0.001,0.001
		C23.05,20.138,23.05,20.186,23.068,20.233z M23.715,19.246c0.009,0.026,0.023,0.049,0.035,0.074
		c0.019,0.038,0.036,0.075,0.063,0.108c0.021,0.025,0.048,0.044,0.072,0.066c-0.014-0.007-0.024-0.02-0.039-0.025
		c-0.021-0.008-0.044-0.007-0.066-0.013c-0.036-0.01-0.071-0.019-0.108-0.021c0.011-0.03,0.021-0.061,0.027-0.092
		c0.004-0.022,0.017-0.042,0.019-0.064C23.719,19.267,23.715,19.257,23.715,19.246z M25.836,25.853
		c0.014,0.003,0.028,0.008,0.042,0.011c-0.009,0.003-0.017,0.009-0.026,0.013C25.846,25.869,25.842,25.861,25.836,25.853z
		 M25.191,16.163c0.042-0.075,0.072-0.154,0.114-0.227c0.031-0.054,0.042-0.113,0.055-0.171c0.002-0.009,0.007-0.017,0.008-0.025
		c0.009,0.007,0.018,0.014,0.028,0.021c0.108,0.077,0.209,0.166,0.318,0.24c0.007,0.005,0.014,0.011,0.021,0.016
		c-0.003,0.008-0.006,0.016-0.009,0.024c-0.02,0.054-0.043,0.108-0.062,0.162c-0.001,0.002-0.002,0.005-0.003,0.007
		c-0.009,0.027-0.021,0.053-0.031,0.08c-0.007-0.004-0.015-0.007-0.023-0.011c-0.038-0.018-0.074-0.042-0.115-0.052
		c-0.113-0.028-0.232-0.012-0.346,0.03c-0.001,0-0.002,0.001-0.003,0.001C25.16,16.227,25.174,16.194,25.191,16.163z M24.891,24.16
		c0.062,0.03,0.122,0.069,0.184,0.098c0.117,0.053,0.239,0.055,0.356,0.033c0.008-0.002,0.017-0.002,0.025-0.004
		c0.023,0.083,0.057,0.162,0.081,0.244c0.001,0.004,0.003,0.008,0.004,0.012c0,0.001,0,0.001,0.001,0.002
		c-0.01-0.002-0.019-0.005-0.029-0.007c-0.266-0.068-0.535-0.121-0.796-0.203c-0.168-0.053-0.344-0.028-0.485,0.055l-0.001,0.001
		c-0.027-0.054-0.052-0.109-0.078-0.163c-0.007-0.015-0.014-0.03-0.022-0.045c-0.072-0.146-0.143-0.29-0.21-0.438
		c-0.015-0.033-0.031-0.063-0.045-0.095c-0.006-0.013-0.013-0.025-0.018-0.038c0.001,0.001,0.002,0.001,0.003,0.002
		c0.071,0.04,0.144,0.075,0.216,0.115C24.347,23.877,24.615,24.029,24.891,24.16z M24.559,22.485
		c0.055-0.007,0.109-0.018,0.164-0.024c-0.001,0.001-0.002,0.002-0.003,0.002c-0.061,0.05-0.109,0.108-0.145,0.176
		c0,0-0.001,0.001-0.001,0.002c-0.053-0.029-0.107-0.054-0.159-0.084c-0.023-0.013-0.047-0.024-0.07-0.037
		c-0.001-0.002-0.002-0.002-0.003-0.003c0.001,0,0.002,0,0.003,0C24.417,22.507,24.487,22.494,24.559,22.485z M24.186,19.645
		c0.046,0.007,0.093,0.006,0.14,0.013c0.009,0.001,0.017,0.001,0.026,0.002c-0.004,0.008-0.006,0.016-0.01,0.024
		c-0.036,0.083-0.064,0.169-0.099,0.252c0,0.001-0.001,0.002-0.001,0.003c-0.004-0.011-0.01-0.022-0.014-0.033
		c-0.012-0.03-0.028-0.059-0.039-0.089c-0.022-0.061-0.062-0.108-0.1-0.156c-0.02-0.025-0.037-0.052-0.06-0.073
		c0.024,0.011,0.049,0.019,0.074,0.027C24.131,19.623,24.155,19.64,24.186,19.645z M22.655,18.611c0.033-0.199,0.049-0.4,0.09-0.598
		c0.014-0.067,0.007-0.133-0.001-0.198c-0.007-0.054-0.023-0.103-0.044-0.152c0.007-0.003,0.014-0.007,0.02-0.011
		c0.01-0.005,0.02-0.01,0.029-0.015c0.018,0.006,0.035,0.015,0.052,0.022c0.052,0.019,0.101,0.045,0.153,0.063
		c0.01,0.003,0.019,0.008,0.029,0.011c0.053,0.018,0.107,0.019,0.161,0.022s0.105-0.001,0.157-0.012
		c-0.004,0.05,0,0.101,0.008,0.152c0.016,0.091,0.046,0.18,0.105,0.259c0.119,0.157,0.301,0.228,0.484,0.226
		c0.082-0.001,0.161-0.02,0.239-0.055c-0.008,0.013-0.016,0.025-0.023,0.039c-0.011,0.024-0.027,0.044-0.036,0.069
		c-0.007,0.021-0.005,0.045-0.01,0.067c-0.036,0.013-0.067,0.033-0.1,0.053c-0.025,0.015-0.054,0.022-0.076,0.04
		c-0.092,0.077-0.154,0.185-0.187,0.308c-0.006,0.022-0.019,0.041-0.022,0.065c0,0.001,0,0.001,0,0.002
		c-0.003,0.023,0.004,0.044,0.003,0.066c0,0.004,0.001,0.008,0.001,0.012c0-0.001-0.001-0.002-0.002-0.004
		c-0.002-0.006-0.006-0.011-0.009-0.017c-0.02-0.054-0.043-0.108-0.08-0.157c-0.048-0.063-0.107-0.112-0.172-0.149
		c-0.137-0.08-0.301-0.104-0.454-0.064c-0.001,0-0.001,0.001-0.002,0.001c-0.037-0.003-0.074-0.012-0.111-0.016
		c-0.067-0.007-0.133-0.021-0.2-0.028C22.656,18.612,22.656,18.612,22.655,18.611L22.655,18.611z M20.993,23.501
		c0.357-0.246,0.716-0.491,1.093-0.705c0.114-0.065,0.187-0.166,0.237-0.277c0.003-0.008,0.007-0.015,0.01-0.023
		c0.04,0.022,0.079,0.045,0.119,0.066c0.07,0.037,0.136,0.079,0.206,0.115c0.044,0.023,0.087,0.051,0.131,0.073
		c0.057,0.029,0.111,0.066,0.168,0.094c0.045,0.022,0.093,0.026,0.14,0.036c0.004,0.001,0.008,0.002,0.012,0.003
		c0.024,0.005,0.048,0.017,0.072,0.018c0,0.011,0.001,0.021,0.002,0.032c-0.035-0.002-0.069,0.002-0.105,0.007
		c-0.005,0.001-0.01,0.002-0.015,0.003c-0.047,0.007-0.094,0.01-0.139,0.029c-0.305,0.126-0.45,0.476-0.324,0.781
		c0.017,0.042,0.041,0.081,0.059,0.123c0.069,0.164,0.156,0.318,0.23,0.48c0.058,0.127,0.119,0.251,0.18,0.377
		c0.004,0.009,0.008,0.017,0.012,0.026c-0.006,0.007-0.011,0.016-0.017,0.023c-0.015,0.019-0.027,0.04-0.042,0.059
		c-0.01,0.001-0.021,0.002-0.032,0.003c-0.118,0.013-0.235,0.027-0.353,0.041c-0.049,0.006-0.098,0.011-0.147,0.017
		c0.022-0.119,0.017-0.244-0.038-0.362c-0.023-0.048-0.058-0.084-0.091-0.123c-0.17-0.203-0.453-0.283-0.704-0.166
		c-0.093,0.044-0.18,0.101-0.272,0.146c-0.01,0.005-0.019,0.011-0.029,0.016c-0.002-0.008-0.009-0.014-0.012-0.022
		c-0.01-0.027-0.026-0.051-0.04-0.076c-0.004-0.008-0.008-0.016-0.012-0.023c0.002-0.005,0.004-0.009,0.006-0.014
		c0.013-0.032,0.034-0.059,0.042-0.094c0.011-0.049,0.004-0.097,0.002-0.145c-0.008-0.234-0.147-0.436-0.365-0.526
		c0,0-0.001,0-0.001-0.001C20.982,23.508,20.988,23.505,20.993,23.501z M20.834,22.005c0.017-0.01,0.033-0.022,0.049-0.032
		c0.015-0.009,0.029-0.019,0.043-0.028c0.004-0.003,0.008-0.006,0.013-0.008c0,0.001,0,0.001,0,0.002
		c0.002,0.029-0.004,0.057,0.002,0.087c0,0.002,0.002,0.003,0.002,0.004c0,0,0,0.001,0.001,0.001
		c0.003,0.014,0.013,0.024,0.017,0.038c0.003,0.008,0.008,0.015,0.011,0.023c-0.006,0.004-0.012,0.008-0.018,0.011
		c-0.026,0.016-0.052,0.034-0.078,0.05c-0.012-0.001-0.023-0.007-0.035-0.007c-0.152-0.004-0.306,0.049-0.426,0.161
		c-0.099,0.093-0.184,0.199-0.281,0.294c-0.01,0.01-0.02,0.021-0.03,0.032c-0.01,0.01-0.02,0.021-0.03,0.031
		c-0.007-0.005-0.016-0.005-0.024-0.009c-0.001,0-0.001,0-0.002-0.001c-0.041-0.024-0.086-0.037-0.13-0.05c0,0-0.001,0-0.001,0.001
		c0.001,0,0.001,0,0.001-0.001c0,0,0,0,0,0c0.036-0.025,0.075-0.047,0.111-0.073c0.119-0.084,0.245-0.159,0.367-0.24
		C20.542,22.195,20.685,22.096,20.834,22.005z M19.301,20.299c0.018-0.095,0.034-0.19,0.055-0.285
		c0.001-0.001,0.002-0.002,0.003-0.004c0.145-0.216,0.291-0.432,0.445-0.64c0.06-0.081,0.111-0.168,0.172-0.247
		c-0.024,0.216,0.064,0.437,0.256,0.566c0.026,0.017,0.055,0.021,0.081,0.033c0.009,0.004,0.018,0.007,0.027,0.011
		c0.002,0.014,0.004,0.028,0.006,0.043c0.015,0.12,0.034,0.239,0.052,0.359c0.001,0.008,0.002,0.017,0.004,0.025
		c-0.008,0.001-0.016,0.003-0.025,0.004c-0.361,0.05-0.725,0.088-1.079,0.161c-0.001,0-0.001,0-0.002,0
		C19.298,20.316,19.299,20.308,19.301,20.299z M19.761,27.053c-0.009,0.01-0.018,0.02-0.028,0.029
		c-0.162,0.148-0.314,0.303-0.47,0.457l-0.001,0.001c-0.001-0.011-0.002-0.021-0.004-0.032c-0.01-0.1-0.026-0.199-0.034-0.299
		c-0.004-0.049-0.013-0.096-0.016-0.145c0.001,0,0.001,0,0.002-0.001c0.003-0.001,0.006-0.002,0.008-0.003
		c0.091-0.029,0.174-0.076,0.242-0.145c0.016,0.013,0.031,0.028,0.048,0.04c0.067,0.044,0.142,0.075,0.226,0.09
		C19.744,27.047,19.752,27.052,19.761,27.053z M18.596,21.858c0.02-0.033,0.034-0.07,0.054-0.103
		c0.001-0.001,0.001-0.002,0.001-0.003c0.001-0.002,0.001-0.005,0.002-0.007c0.001,0.003,0,0.005,0,0.007
		c0.001,0.004,0,0.009,0.001,0.013c0.016,0.058,0.047,0.107,0.077,0.155c0.033,0.053,0.073,0.097,0.119,0.136
		c-0.023,0.081-0.03,0.164-0.018,0.249c0.014,0.093,0.042,0.185,0.102,0.267c0.083,0.113,0.201,0.179,0.327,0.214
		c0.011,0.003,0.021,0.009,0.032,0.011c-0.044,0.054-0.075,0.113-0.097,0.178c-0.003,0.009-0.008,0.017-0.011,0.026
		c-0.001,0.004-0.004,0.008-0.005,0.012c-0.016-0.003-0.031-0.003-0.047-0.005c-0.001,0-0.001,0-0.002,0
		c-0.004-0.008-0.008-0.016-0.011-0.025c-0.011-0.023-0.022-0.047-0.033-0.07c-0.059-0.125-0.12-0.247-0.175-0.374
		c-0.034-0.077-0.074-0.15-0.107-0.228c-0.021-0.05-0.048-0.096-0.068-0.146c-0.006-0.014-0.013-0.027-0.019-0.041
		c-0.021-0.053-0.058-0.092-0.091-0.135c-0.02-0.025-0.033-0.057-0.056-0.078c0,0-0.001-0.001-0.002-0.001
		C18.579,21.893,18.586,21.875,18.596,21.858z M18.282,30.897c-0.001-0.063,0.002-0.125,0.002-0.188c0-0.001,0-0.001,0-0.002
		s0.001-0.001,0.001-0.002c0.112-0.144,0.227-0.285,0.345-0.426c0.028-0.033,0.053-0.068,0.081-0.101
		c0.016-0.019,0.031-0.039,0.047-0.058c0.001,0,0.002,0,0.002,0c0.129-0.01,0.247-0.066,0.348-0.155
		c0.011-0.01,0.022-0.017,0.032-0.028c0.006-0.007,0.014-0.011,0.02-0.017c0.001,0.002,0.002,0.004,0.003,0.007
		c0.025,0.069,0.053,0.136,0.079,0.205c0.014,0.035,0.027,0.071,0.041,0.106c-0.007,0.005-0.015,0.009-0.022,0.014
		c-0.138,0.107-0.233,0.265-0.238,0.453c-0.002,0.115,0.012,0.229,0.011,0.344c0,0.007,0.001,0.014,0.001,0.021
		c0,0.015,0.001,0.03,0.001,0.044c-0.002,0.005-0.004,0.01-0.006,0.015c-0.006,0.006-0.012,0.013-0.018,0.02
		c-0.009,0.01-0.019,0.019-0.027,0.03c-0.035,0.043-0.062,0.088-0.083,0.138c0,0,0,0.001-0.001,0.002
		c-0.064-0.014-0.129-0.025-0.193-0.039c-0.042-0.01-0.085-0.016-0.126-0.026c-0.02-0.007-0.041-0.01-0.062-0.015
		c-0.001-0.001-0.002-0.002-0.002-0.002c-0.061-0.085-0.142-0.149-0.237-0.193c0,0-0.001,0-0.001-0.001
		C18.279,30.994,18.282,30.946,18.282,30.897z M17.157,29.444C17.158,29.444,17.158,29.445,17.157,29.444
		c0.002,0.002,0.002,0.004,0.001,0.004c0,0.001,0,0.002-0.001,0.003C17.157,29.449,17.157,29.446,17.157,29.444z M52.855,30.301
		c-0.666,0.88-1.774,1.323-2.926,1.746c-0.494,0.167-1.022,0.318-1.559,0.464c-0.041,0.011-0.078,0.024-0.119,0.035
		c-0.107,0.029-0.215,0.058-0.325,0.086c-0.174,0.045-0.36,0.081-0.536,0.124c-0.004,0.001-0.007,0.001-0.01,0.002
		c-0.098,0.023-0.197,0.047-0.297,0.069c-0.011,0.002-0.021,0.005-0.033,0.008c-0.144,0.033-0.285,0.067-0.433,0.101
		c-0.302,0.064-0.603,0.129-0.913,0.189c-0.001,0-0.001,0-0.002,0c-0.059,0.011-0.121,0.021-0.18,0.032
		c-0.03,0.006-0.062,0.01-0.092,0.016c-0.096,0.019-0.193,0.034-0.291,0.052c-0.037,0.006-0.072,0.012-0.109,0.019
		c-0.174,0.03-0.346,0.063-0.522,0.092c-0.008,0.001-0.017,0.003-0.024,0.004c-0.086,0.015-0.168,0.031-0.254,0.044h-0.002
		c-0.121,0.02-0.237,0.041-0.359,0.061c-0.001,0-0.001,0-0.002,0c-0.342,0.051-0.697,0.091-1.047,0.136
		c-0.034,0.005-0.069,0.009-0.105,0.014c-0.049,0.007-0.097,0.013-0.146,0.019c-0.014,0.003-0.027,0.005-0.043,0.007
		c-0.008,0.001-0.019,0.003-0.027,0.004c-0.004,0.001-0.008,0.001-0.012,0.002c-0.237,0.028-0.467,0.065-0.707,0.092
		c-0.026,0.003-0.051,0.007-0.077,0.011c-0.136,0.015-0.277,0.024-0.414,0.039c-0.073,0.008-0.147,0.012-0.22,0.021
		c-0.002,0-0.004,0-0.004,0c-0.477,0.048-0.953,0.096-1.438,0.136c-0.003,0-0.005,0-0.007,0.001c-0.03,0.003-0.059,0.007-0.09,0.009
		c-0.057,0.004-0.111,0.01-0.168,0.016c-0.063,0.005-0.129,0.008-0.191,0.013c-0.003,0-0.005,0-0.008,0.001
		c-0.062,0.005-0.127,0.008-0.189,0.014c-0.076,0.006-0.152,0.01-0.228,0.015c-0.001,0-0.003,0-0.004,0
		c-0.03,0.002-0.062,0.004-0.091,0.006c-0.186,0.013-0.371,0.024-0.557,0.037c-0.011,0.001-0.023,0.002-0.033,0.002
		c-0.154,0.01-0.308,0.021-0.463,0.03c0,0,0,0-0.002,0c-0.016,0.002-0.031,0.002-0.048,0.004c-0.001,0-0.001,0-0.002,0
		c-0.241,0.014-0.479,0.031-0.721,0.043c-0.069,0.005-0.14,0.006-0.208,0.009c-0.014,0.001-0.027,0.001-0.041,0.002
		c-0.062,0.003-0.128,0.005-0.191,0.008c-0.021,0.001-0.045,0.002-0.066,0.003c-0.01,0-0.019,0.001-0.027,0.001
		c-0.018,0.001-0.037,0.001-0.055,0.002c-0.002,0-0.006,0-0.008,0c-0.004,0-0.008,0-0.013,0s-0.011,0-0.016,0.001
		c-0.011,0-0.022,0.002-0.033,0.002c-0.01,0-0.019,0-0.028,0c-0.047,0.002-0.093,0.004-0.14,0.006h-0.001
		c-0.027,0.002-0.057,0.002-0.085,0.004c-0.099,0.004-0.198,0.008-0.297,0.012c-0.011,0-0.021,0.001-0.03,0.001
		c-0.146,0.006-0.293,0.013-0.441,0.019c-0.047,0.002-0.096,0.004-0.144,0.006c-0.001,0-0.002,0-0.003,0
		c-0.068,0.002-0.135,0.006-0.202,0.008c-0.008,0-0.017,0-0.024,0c-0.016,0-0.03,0.002-0.045,0.002
		c-0.027,0.002-0.054,0.003-0.08,0.004c-0.291,0.008-0.584,0.01-0.875,0.016c-0.117,0.002-0.232,0.003-0.35,0.005
		c-0.011,0-0.021,0-0.033,0.001c-0.009,0-0.017,0-0.025,0c-0.002,0-0.002,0-0.002,0c-0.004,0-0.008,0-0.012,0
		c-0.146,0.002-0.293,0.006-0.44,0.008c0,0-0.001,0-0.002,0c-0.069,0-0.138,0.002-0.206,0.002c-0.002,0-0.004,0-0.006,0
		c-0.07,0.002-0.141,0.004-0.211,0.004c-0.004,0-0.007,0-0.011,0c-0.039,0-0.078,0.002-0.118,0.002h-0.001
		c-0.082,0-0.165,0.004-0.247,0.004c-0.028,0-0.056-0.002-0.084-0.002c-0.01,0-0.019,0-0.029-0.002
		c-0.082,0-0.164-0.004-0.246-0.004c-0.039,0-0.077-0.002-0.115-0.002c-0.105-0.002-0.21-0.006-0.314-0.006
		c-0.011,0-0.023,0-0.034-0.002c-0.002,0-0.005,0-0.007,0c-0.008,0-0.017,0-0.025,0c-0.107-0.003-0.214-0.005-0.321-0.008
		c-0.01,0-0.02,0-0.03-0.001c-0.167-0.003-0.333-0.006-0.5-0.01c-0.063-0.002-0.126-0.002-0.189-0.004
		c-0.204-0.007-0.409-0.007-0.613-0.015h-0.001c-0.236-0.008-0.469-0.021-0.704-0.031c-0.011,0-0.021-0.002-0.032-0.002
		c-0.103-0.004-0.206-0.008-0.309-0.014c-0.001,0-0.003,0-0.004,0c-0.036-0.002-0.071-0.003-0.107-0.005h-0.001
		c-0.022-0.001-0.044-0.002-0.066-0.003c-0.001,0-0.001,0-0.002,0c-0.049-0.002-0.098-0.004-0.147-0.007
		c-0.01,0-0.019-0.001-0.029-0.001c-0.286-0.014-0.575-0.023-0.86-0.039c-0.028-0.002-0.057-0.002-0.085-0.004h-0.001
		c-0.004,0-0.008,0-0.012-0.001c-0.035-0.002-0.07-0.005-0.105-0.007c-0.007,0-0.015-0.002-0.022-0.002
		c-0.006,0-0.011-0.002-0.017-0.002c-0.003,0-0.007,0-0.01,0c-0.001,0-0.002,0-0.004,0c-0.01-0.002-0.02-0.002-0.03-0.002
		c-0.002,0-0.003,0-0.005,0c-0.024-0.002-0.048-0.004-0.073-0.006c-0.218-0.013-0.433-0.031-0.65-0.047
		c-0.037-0.003-0.073-0.005-0.11-0.008c-0.005,0-0.009-0.001-0.014-0.001c-0.001,0-0.001,0-0.002,0
		c-0.167-0.012-0.335-0.022-0.501-0.036c-0.01-0.001-0.02-0.001-0.03-0.002c-0.017-0.001-0.035-0.002-0.053-0.004
		c-0.011-0.001-0.023-0.002-0.034-0.003c-0.197-0.015-0.398-0.026-0.595-0.043c-0.008-0.001-0.017-0.001-0.025-0.002
		c-0.719-0.062-1.427-0.132-2.126-0.21c-0.052-0.006-0.107-0.01-0.159-0.016c-0.011-0.002-0.023-0.002-0.034-0.004
		c-0.001,0-0.002,0-0.002,0c-0.04-0.004-0.082-0.008-0.122-0.012c-0.354-0.04-0.692-0.096-1.039-0.145c-0.001,0-0.002,0-0.002,0
		c-0.039-0.004-0.078-0.01-0.117-0.016c-0.002,0-0.004,0-0.005,0c-0.131-0.019-0.263-0.035-0.392-0.055
		c-0.059-0.009-0.12-0.016-0.179-0.025c-0.008,0-0.017-0.002-0.025-0.002c-0.084-0.014-0.171-0.022-0.254-0.035
		c-0.026-0.004-0.054-0.008-0.08-0.012c-0.001,0-0.002,0-0.002,0c-0.022-0.003-0.045-0.006-0.067-0.009c-0.001,0-0.001,0-0.002,0
		c-0.088-0.015-0.173-0.03-0.26-0.045c-0.01-0.002-0.019-0.004-0.028-0.005c-0.012-0.002-0.023-0.006-0.035-0.008
		c-0.017-0.002-0.033-0.006-0.049-0.008c-0.1-0.018-0.196-0.039-0.295-0.057c-0.003,0-0.006-0.001-0.009-0.002
		c-0.045-0.008-0.089-0.018-0.134-0.025c-0.004,0-0.008-0.002-0.013-0.002c-0.135-0.023-0.267-0.05-0.4-0.074
		c-0.001,0-0.001,0-0.002,0c-0.071-0.015-0.143-0.026-0.214-0.041c-0.059-0.01-0.119-0.021-0.177-0.032
		c-0.043-0.009-0.088-0.017-0.13-0.025c-0.014-0.003-0.029-0.005-0.043-0.008c-0.127-0.026-0.263-0.046-0.389-0.073
		c-0.009-0.002-0.018-0.003-0.027-0.005c-0.025-0.005-0.047-0.012-0.072-0.017c-0.094-0.02-0.179-0.045-0.272-0.066
		c-0.01-0.002-0.019-0.005-0.028-0.007c-0.085-0.019-0.165-0.041-0.249-0.06c-0.01-0.002-0.019-0.006-0.028-0.008
		c-0.126-0.029-0.249-0.06-0.373-0.09c-0.05-0.012-0.101-0.023-0.151-0.035c-0.116-0.029-0.235-0.056-0.349-0.084
		c-0.104-0.027-0.214-0.05-0.316-0.076c-0.002-0.002-0.005-0.002-0.007-0.002c-0.026-0.008-0.054-0.013-0.08-0.02
		c-0.009-0.001-0.018-0.005-0.027-0.007c-0.143-0.039-0.271-0.089-0.411-0.13c-0.505-0.148-1.006-0.299-1.471-0.478
		c-0.578-0.226-1.128-0.469-1.614-0.788c-0.471-0.318-0.948-0.699-1.069-1.31c-0.067-0.596,0.344-1.031,0.675-1.294
		c0.358-0.267,0.716-0.448,1.043-0.599c0.658-0.291,1.203-0.445,1.569-0.547c0.369-0.1,0.565-0.154,0.565-0.154
		s-0.021,0.008-0.053,0.019c0.068-0.02,0.145-0.039,0.214-0.058c-0.034,0.427-0.051,0.859-0.051,1.294
		c0,0.174,0.003,0.347,0.009,0.521c0.007,0.227,0.144,0.416,0.334,0.511c0.01,0.005,0.017,0.013,0.026,0.017
		c0.009,0.078,0.007,0.159,0.017,0.236c0.001,0.008,0.006,0.015,0.008,0.023c-0.011,0.007-0.019,0.018-0.03,0.025
		c-0.174,0.122-0.283,0.326-0.257,0.552c0.009,0.083,0.031,0.164,0.042,0.247c0.001,0.009,0.003,0.018,0.005,0.027
		c-0.157,0.117-0.326,0.219-0.478,0.341c-0.195,0.157-0.264,0.411-0.197,0.638c0.195,0.059,0.394,0.115,0.596,0.169
		c0.021,0.006,0.041,0.012,0.062,0.018c0.077,0.021,0.149,0.045,0.228,0.065c0.03,0.008,0.058,0.017,0.088,0.025h0.001
		c0.364,0.091,0.747,0.17,1.13,0.249c0.081,0.017,0.162,0.033,0.244,0.05c0.052,0.01,0.103,0.021,0.155,0.031
		c0.055,0.011,0.107,0.023,0.162,0.033c0.012,0.002,0.024,0.005,0.036,0.007c0.002,0,0.003,0.001,0.005,0.001
		c0.005,0.001,0.009,0.002,0.014,0.003c0.074,0.014,0.144,0.031,0.219,0.044c0.096,0.017,0.185,0.039,0.282,0.056
		c0.055,0.009,0.114,0.016,0.169,0.025c0.101,0.017,0.208,0.03,0.31,0.047c0.047,0.008,0.096,0.014,0.144,0.022
		c0.001,0,0.001,0,0.002,0c0.007,0.001,0.014,0.002,0.022,0.003c0.025,0.004,0.051,0.008,0.076,0.012
		c0.013,0.002,0.026,0.004,0.039,0.006c0.008,0.001,0.017,0.003,0.025,0.004c0.109,0.017,0.219,0.033,0.329,0.049
		c0.043,0.007,0.086,0.013,0.129,0.019c0.045,0.008,0.089,0.015,0.134,0.021c0.004,0.001,0.009,0.001,0.013,0.002
		c0.01,0.001,0.019,0.003,0.029,0.004c0.079,0.011,0.155,0.024,0.234,0.035c0.037,0.005,0.073,0.011,0.11,0.017
		c0.001,0,0.002,0,0.004,0.002c0.03,0.004,0.058,0.008,0.088,0.013c0.033,0.004,0.064,0.01,0.097,0.015c0.001,0,0.003,0,0.004,0.001
		c0.011,0.001,0.021,0.003,0.031,0.005c0.019,0.004,0.037,0.006,0.056,0.008c0.085,0.012,0.173,0.021,0.259,0.033
		c0.01,0,0.02,0.002,0.03,0.004c0.15,0.019,0.306,0.035,0.457,0.053c0.106,0.014,0.214,0.025,0.321,0.039c0.001,0,0.002,0,0.003,0
		c0.102,0.012,0.204,0.024,0.307,0.035c0.03,0.004,0.06,0.008,0.091,0.012c0.079,0.009,0.156,0.019,0.236,0.027
		c0.178,0.021,0.35,0.043,0.53,0.063c0.01,0.001,0.02,0.002,0.03,0.004c0.005,0.001,0.011,0.001,0.016,0.001
		c0.083,0.009,0.17,0.014,0.254,0.021c-0.021-0.043-0.043-0.082-0.073-0.119c-0.017-0.021-0.037-0.037-0.057-0.057
		c0.056-0.011,0.11-0.023,0.16-0.05c0.032-0.016,0.059-0.038,0.087-0.06c0.008-0.006,0.017-0.01,0.025-0.018
		c0.001,0.018,0,0.037,0.001,0.055c0.002,0.02,0.012,0.035,0.015,0.054c0.004,0.024,0.013,0.047,0.02,0.069
		c0.002,0.006,0.003,0.012,0.005,0.018c0.016,0.046,0.032,0.089,0.058,0.129c0.311,0.03,0.625,0.057,0.94,0.083
		c0.008-0.009,0.015-0.019,0.023-0.028c0.009-0.011,0.013-0.024,0.021-0.037c-0.001,0.023,0.003,0.047,0.005,0.069
		c0.039,0.003,0.078,0.007,0.117,0.011c0.269,0.021,0.534,0.047,0.805,0.067c0.025,0.002,0.051,0.003,0.077,0.005
		c0.013,0.001,0.027,0.001,0.04,0.002c0.008,0.001,0.017,0.001,0.026,0.001c0.008,0.001,0.017,0.001,0.026,0.002
		c0.009,0.001,0.019,0.001,0.029,0.003c0.003,0,0.006,0,0.009,0c0.007,0,0.014,0.002,0.021,0.002
		c0.368,0.024,0.74,0.045,1.112,0.065c0.001,0,0.001,0,0.002,0c0.013,0.001,0.027,0.002,0.04,0.002c0.002,0,0.004,0,0.006,0
		c0.018,0.001,0.036,0.002,0.054,0.003c0.003,0,0.005,0,0.008,0c0.026,0.001,0.051,0.003,0.077,0.005c0.001,0,0.002,0,0.003,0
		c0.034,0.002,0.068,0.004,0.102,0.007c-0.009-0.016-0.016-0.031-0.025-0.047c-0.004-0.007-0.007-0.013-0.011-0.02h0.001
		c0.119-0.047,0.224-0.119,0.29-0.225c0.032-0.05,0.051-0.107,0.067-0.166l0.001-0.002c0.021-0.016,0.041-0.031,0.062-0.046
		c0.009-0.006,0.017-0.013,0.026-0.019c0,0.001,0,0.002,0,0.002c-0.001,0.035-0.004,0.072-0.005,0.109
		c-0.002,0.09-0.013,0.181-0.013,0.271c0,0.053-0.008,0.106-0.007,0.159c0,0.002,0.001,0.003,0.001,0.005
		c0.09,0.004,0.178,0.011,0.269,0.015c0.028,0.001,0.057,0.002,0.086,0.004c0.06,0.002,0.122,0.002,0.182,0.006
		c0.011,0,0.022,0,0.033,0c0.052,0.002,0.104,0.004,0.156,0.006c0.042,0.002,0.084,0.002,0.126,0.004
		c0.069,0.003,0.138,0.004,0.207,0.007c0.007,0,0.013,0,0.02,0.001c0.004,0,0.008,0,0.011,0c0.031,0.001,0.063,0.002,0.094,0.003
		c0.003,0,0.007,0,0.01,0c0.004,0,0.008,0,0.011,0c0.01,0,0.021,0.001,0.032,0.001c0.293,0.01,0.586,0.021,0.88,0.029
		c0.001,0,0.001,0,0.002,0c0.009,0,0.017,0,0.026,0c0.001,0,0.002,0,0.002,0c0.115,0.004,0.228,0.01,0.343,0.012h0.001
		c0.083,0.002,0.166,0.004,0.249,0.006c0.001,0,0.001,0,0.002,0c0.036,0.001,0.072,0,0.108,0.001
		c0.004-0.028-0.002-0.06-0.002-0.088c0-0.008-0.001-0.015-0.002-0.022c-0.002-0.041,0.002-0.082-0.009-0.121
		c-0.018-0.068-0.052-0.127-0.09-0.181c0,0,0-0.001-0.001-0.002c0.007-0.011,0.014-0.022,0.021-0.032
		c0.111-0.179,0.215-0.358,0.333-0.532c0.052-0.077,0.095-0.16,0.148-0.236c0.006-0.008,0.006-0.018,0.011-0.026
		c0.089-0.139,0.119-0.301,0.084-0.452c-0.031-0.138-0.113-0.266-0.238-0.355c-0.269-0.191-0.643-0.127-0.834,0.142
		c-0.077,0.109-0.138,0.228-0.213,0.339c-0.047,0.069-0.087,0.142-0.133,0.212c-0.011,0.002-0.022,0.003-0.033,0.006
		c-0.033,0.008-0.066,0.013-0.098,0.027c-0.026,0.011-0.049,0.032-0.074,0.047c-0.027,0.017-0.055,0.03-0.079,0.051
		c-0.015-0.002-0.03,0.002-0.046,0.001c-0.075-0.006-0.15,0.004-0.224,0.028c-0.044,0.014-0.087,0.027-0.128,0.052
		c-0.001,0-0.001,0-0.002,0.001c0-0.002,0-0.003,0-0.005c0.001-0.018,0.001-0.035,0.002-0.053c0.001-0.017,0.001-0.033,0.002-0.049
		c0.001,0,0.001,0,0.002,0c0.282-0.05,0.499-0.287,0.498-0.583c-0.001-0.118-0.045-0.222-0.105-0.314
		c-0.001-0.001-0.001-0.002-0.002-0.003c0.002,0.001,0.004,0.002,0.006,0.003c0.039,0.011,0.077,0.006,0.116,0.01
		c0.239,0.02,0.459-0.101,0.571-0.313c0.014-0.027,0.032-0.052,0.043-0.081c0.001,0.001,0.002,0.002,0.004,0.003
		c0.207,0.112,0.47,0.096,0.664-0.062c0.114-0.094,0.178-0.223,0.202-0.358c0.002-0.009,0.007-0.018,0.008-0.027
		c0.045,0.045,0.088,0.091,0.133,0.136c0.113,0.109,0.215,0.23,0.33,0.336c0.01,0.009,0.019,0.02,0.029,0.029
		c0.049,0.044,0.105,0.071,0.162,0.096c-0.018,0.016-0.037,0.032-0.053,0.05c-0.112,0.13-0.174,0.302-0.144,0.485
		c0.005,0.031,0.023,0.056,0.033,0.085c0.003,0.01,0.008,0.02,0.011,0.029c-0.009,0.015-0.018,0.029-0.027,0.044
		c-0.092,0.156-0.201,0.305-0.287,0.463c-0.006,0.01-0.005,0.022-0.01,0.033c-0.018,0.038-0.027,0.078-0.036,0.117
		c-0.031,0.011-0.065,0.013-0.093,0.028c-0.001,0-0.001,0.001-0.002,0.001c-0.124,0.068-0.224,0.18-0.275,0.324
		c-0.1,0.282,0.033,0.582,0.29,0.719c0.002,0.001,0.004,0.003,0.007,0.004c0.013,0,0.027,0,0.04,0
		c0.122,0.003,0.245,0.003,0.367,0.003c0.053,0,0.105,0.002,0.158,0.002c0.029,0,0.058,0,0.087,0c0.042,0,0.083,0.002,0.125,0.002
		c0.003,0,0.007,0,0.01,0c0.066,0,0.132,0,0.198,0.002c0.064,0,0.127,0,0.191,0.002c0.072,0,0.143,0.002,0.215,0.002
		c0.017,0,0.034,0,0.051,0c0.001,0,0.001,0,0.002,0c0.101,0,0.202,0.002,0.303,0.002c0.014,0,0.028,0,0.041,0
		c0.001,0,0.002,0,0.003,0c0.04,0,0.079-0.002,0.118,0c0.013,0,0.027,0,0.04,0h0.001c0.034,0,0.068-0.002,0.102,0
		c0.022,0,0.043,0,0.065,0c0.14,0,0.28-0.002,0.421-0.002c0.002,0,0.002,0,0.005,0c0.002,0,0.005,0,0.007,0c0.001,0,0.002,0,0.002,0
		c0.006,0,0.011,0,0.018,0c0.002,0,0.004,0,0.006,0c0.025,0,0.052,0,0.078,0c0.297,0,0.594,0,0.891-0.004c0.004,0,0.008,0,0.012,0
		c0.005,0,0.01,0,0.016,0c-0.002-0.004-0.002-0.008-0.004-0.012c-0.002-0.007-0.002-0.014-0.006-0.021
		c0.008-0.01,0.012-0.021,0.018-0.031c0.002-0.005,0.005-0.01,0.008-0.016c0.01,0.006,0.02,0.01,0.029,0.016
		c0.041,0.021,0.082,0.049,0.125,0.061c0.002,0.002,0.004,0.002,0.006,0.002c0.008,0.002,0.015,0,0.021,0.002
		c0.001,0,0.002,0,0.003,0c0.081-0.002,0.163,0,0.244-0.002c0.058,0,0.116,0,0.175,0c0.028,0,0.057-0.002,0.086-0.002
		c0.008,0,0.017-0.002,0.024-0.002c0.165-0.003,0.328-0.01,0.492-0.014c0.019,0,0.036-0.001,0.055-0.002
		c0.021,0,0.042-0.001,0.063-0.002c0.002,0,0.002,0,0.004,0c0.008,0,0.015,0,0.021-0.001c0.039-0.001,0.077-0.002,0.116-0.003
		c0.088-0.002,0.175-0.006,0.263-0.008c0.063-0.002,0.125-0.002,0.188-0.004c0.001,0,0.001,0,0.002,0
		c0.017,0,0.034-0.002,0.051-0.002c0.065-0.002,0.134-0.002,0.199-0.006c0.049-0.002,0.099-0.002,0.147-0.004
		c0.016,0,0.029-0.001,0.045-0.001c0.057-0.002,0.113-0.003,0.17-0.005c0.027-0.001,0.055-0.001,0.082-0.002h0.002
		c0.156-0.006,0.312-0.009,0.468-0.016c0.001,0,0.002,0,0.002,0c0.056-0.002,0.11-0.006,0.168-0.008
		c-0.063-0.068-0.136-0.123-0.222-0.156c-0.02-0.008-0.041-0.006-0.062-0.012c-0.012-0.004-0.024-0.006-0.038-0.008
		c-0.031-0.031-0.062-0.061-0.1-0.084c-0.059-0.035-0.118-0.068-0.184-0.08c-0.02-0.005-0.041,0-0.06-0.002
		c-0.003,0-0.007,0-0.011,0c0.006-0.022,0.018-0.041,0.021-0.063c0.005-0.036-0.008-0.069-0.01-0.104
		c-0.019-0.225-0.155-0.415-0.36-0.5c0,0,0,0-0.002-0.001c-0.003-0.009-0.007-0.018-0.01-0.027
		c-0.059-0.164-0.131-0.322-0.184-0.487c-0.004-0.014-0.014-0.023-0.021-0.036c-0.005-0.011-0.013-0.02-0.019-0.031
		c0.004-0.005,0.008-0.01,0.011-0.015c0.036-0.088,0.058-0.18,0.05-0.273c-0.011-0.141-0.072-0.28-0.183-0.386
		c-0.091-0.086-0.201-0.128-0.315-0.147c-0.001,0-0.001,0-0.002,0c0.016-0.029,0.028-0.059,0.044-0.088
		c0.071-0.134,0.127-0.275,0.201-0.407c0.04-0.07,0.06-0.145,0.069-0.221c0-0.001,0-0.002,0-0.002
		c0.027-0.025,0.055-0.048,0.08-0.073c0.051-0.049,0.104-0.094,0.154-0.142c0.022-0.021,0.045-0.041,0.066-0.061
		c0,0,0,0.001,0.001,0.001c0.05,0.099,0.116,0.189,0.219,0.25c0.285,0.168,0.652,0.073,0.82-0.211c0,0,0-0.001,0.001-0.001
		c0.005-0.009,0.012-0.017,0.018-0.026v0.001c0.148,0.519,0.319,1.034,0.516,1.533c0.005,0.01,0.007,0.02,0.011,0.03
		c-0.006,0.009-0.013,0.017-0.019,0.026c-0.111,0.169-0.238,0.329-0.344,0.501c-0.17,0.283-0.08,0.65,0.201,0.822
		c0.001,0.001,0.002,0,0.003,0.001c0.084,0.05,0.175,0.071,0.267,0.077c0.047,0.062,0.106,0.115,0.176,0.156
		c0.008,0.004,0.018,0.008,0.025,0.013c-0.008,0.005-0.015,0.01-0.022,0.015c-0.013,0.008-0.022,0.016-0.035,0.023
		c-0.091,0.055-0.179,0.115-0.269,0.171c0.242-0.013,0.483-0.024,0.725-0.039c0.02-0.001,0.04-0.002,0.061-0.003
		c0.012-0.001,0.025-0.001,0.039-0.002c0.047-0.003,0.098-0.005,0.146-0.008c0.014-0.002,0.028-0.002,0.043-0.002
		c0.004,0,0.008,0,0.012-0.002c0.037-0.002,0.075-0.004,0.112-0.006c0.137-0.008,0.275-0.013,0.412-0.021
		c0.013-0.001,0.025-0.001,0.037-0.002c0.021-0.001,0.043-0.003,0.064-0.004c0.652-0.045,1.291-0.1,1.926-0.159
		c0.049-0.005,0.101-0.008,0.149-0.013c0.015-0.034,0.017-0.073,0.024-0.11c0.008,0.002,0.015,0.006,0.022,0.008
		c0.149,0.029,0.31,0.005,0.446-0.085c0.219-0.145,0.305-0.406,0.244-0.647c0-0.001-0.002-0.001-0.002-0.002
		c0.012,0,0.021-0.002,0.033-0.002c0.176-0.007,0.351-0.031,0.526-0.031c0.138-0.001,0.256-0.057,0.356-0.135
		c0.008-0.005,0.016-0.01,0.021-0.016c0.01,0.028,0.016,0.057,0.025,0.086c0.005,0.014,0.008,0.029,0.013,0.043
		c0.022,0.068,0.037,0.14,0.06,0.208c-0.008,0.004-0.015,0.009-0.021,0.014c-0.098,0.058-0.184,0.138-0.236,0.248
		c-0.003,0.006-0.009,0.011-0.012,0.017c-0.014,0.028-0.021,0.06-0.033,0.089c-0.011,0.005-0.021,0.01-0.033,0.016
		c-0.024,0.015-0.054,0.021-0.076,0.037c-0.047,0.037-0.084,0.084-0.119,0.135c0.047-0.006,0.092-0.01,0.138-0.016
		c0.009-0.001,0.019-0.002,0.028-0.003c0.127-0.014,0.257-0.028,0.384-0.042c0.032-0.004,0.063-0.007,0.096-0.011
		c0.044-0.005,0.091-0.011,0.134-0.015c0.043-0.006,0.088-0.01,0.129-0.015c0.152-0.019,0.305-0.036,0.455-0.055
		c0.002,0,0.004-0.001,0.006-0.001c0.004-0.001,0.009-0.001,0.014-0.002c0.029-0.004,0.056-0.008,0.086-0.012
		c0.013-0.01,0.029-0.015,0.041-0.025c0.053-0.045,0.094-0.1,0.129-0.158c0.006-0.01,0.016-0.018,0.021-0.028
		c0.002-0.004,0.004-0.007,0.006-0.011c0.045-0.011,0.087-0.024,0.127-0.044c0.002-0.001,0.003-0.002,0.005-0.003
		c0.006,0.004,0.011,0.009,0.017,0.013c0.004,0.002,0.006,0.005,0.01,0.007c-0.002,0.004-0.002,0.008-0.004,0.011
		c-0.005,0.015-0.01,0.029-0.013,0.045c-0.002,0.008-0.005,0.015-0.007,0.023c-0.003,0.016-0.012,0.027-0.014,0.043
		c-0.002,0.027,0.006,0.051,0.008,0.078v0.002c0.012-0.002,0.023-0.002,0.035-0.005c0.076-0.01,0.149-0.021,0.226-0.032
		c0.103-0.014,0.203-0.028,0.304-0.043h0.002c0.018-0.002,0.035-0.004,0.053-0.008c0.082-0.012,0.164-0.021,0.244-0.033
		c0.017-0.004,0.035-0.006,0.053-0.008c0.109-0.016,0.223-0.03,0.332-0.047c0.004,0,0.006-0.001,0.009-0.001
		c0.371-0.058,0.726-0.126,1.083-0.192c0.105-0.019,0.209-0.039,0.312-0.059c0.106-0.02,0.217-0.039,0.321-0.06h0.001
		c0.062-0.013,0.128-0.023,0.189-0.036c0.006-0.001,0.012-0.002,0.017-0.003c0.103-0.021,0.215-0.037,0.315-0.06
		c0.05-0.011,0.093-0.025,0.142-0.036c0.087-0.02,0.164-0.045,0.25-0.065c0.035-0.043,0.073-0.083,0.095-0.134
		c0.008-0.019,0.008-0.041,0.014-0.061c0.005-0.014,0.008-0.029,0.011-0.043c0.046,0.021,0.093,0.04,0.142,0.048
		c0.237,0.04,0.486-0.063,0.615-0.284c0.166-0.286,0.07-0.652-0.215-0.819c-0.1-0.058-0.191-0.132-0.291-0.192
		c-0.059-0.036-0.115-0.078-0.174-0.115l0.001-0.001c0.015-0.016,0.036-0.026,0.049-0.044c0.084-0.114,0.129-0.259,0.114-0.412
		c-0.018-0.184-0.121-0.334-0.262-0.431c0.004-0.065,0.006-0.129,0.01-0.194c0.015-0.274,0.046-0.547,0.046-0.821
		c0-0.349-0.011-0.697-0.033-1.041c-0.002-0.036-0.019-0.067-0.028-0.101c-0.006-0.023-0.01-0.046-0.019-0.068
		c-0.06-0.158-0.181-0.282-0.332-0.344c0.639,0.155,1.214,0.32,1.739,0.492c-0.082-0.032-0.129-0.05-0.129-0.05
		s0.195,0.055,0.562,0.165c0.364,0.117,0.902,0.285,1.543,0.621c0.312,0.18,0.674,0.373,0.969,0.731
		c0.149,0.176,0.282,0.443,0.303,0.656C53.102,29.804,53.012,30.072,52.855,30.301z"/>
</g>
</svg>
